%!PS-Adobe-3.0 EPSF-3.0
%%Creator: MATLAB, The Mathworks, Inc.
%%Title: /Users/movellan/projects/Kolmogorov/Tutorials/Gabor/junk/figure2.eps
%%CreationDate: 09/04/2008  22:06:08
%%DocumentNeededFonts: Times-Roman
%%DocumentProcessColors: Cyan Magenta Yellow Black
%%LanguageLevel: 2
%%Pages: 1
%%BoundingBox:    36   193   574   597
%%EndComments

%%BeginProlog
% MathWorks dictionary
/MathWorks 160 dict begin
% definition operators
/bdef {bind def} bind def
/ldef {load def} bind def
/xdef {exch def} bdef
/xstore {exch store} bdef
% operator abbreviations
/c  /clip ldef
/cc /concat ldef
/cp /closepath ldef
/gr /grestore ldef
/gs /gsave ldef
/mt /moveto ldef
/np /newpath ldef
/cm /currentmatrix ldef
/sm /setmatrix ldef
/rm /rmoveto ldef
/rl /rlineto ldef
/s {show newpath} bdef
/sc {setcmykcolor} bdef
/sr /setrgbcolor ldef
/sg /setgray ldef
/w /setlinewidth ldef
/j /setlinejoin ldef
/cap /setlinecap ldef
/rc {rectclip} bdef
/rf {rectfill} bdef
% page state control
/pgsv () def
/bpage {/pgsv save def} bdef
/epage {pgsv restore} bdef
/bplot /gsave ldef
/eplot {stroke grestore} bdef
% orientation switch
/portraitMode 0 def /landscapeMode 1 def /rotateMode 2 def
% coordinate system mappings
/dpi2point 0 def
% font control
/FontSize 0 def
/FMS {/FontSize xstore findfont [FontSize 0 0 FontSize neg 0 0]
  makefont setfont} bdef
/reencode {exch dup where {pop load} {pop StandardEncoding} ifelse
  exch dup 3 1 roll findfont dup length dict begin
  { 1 index /FID ne {def}{pop pop} ifelse } forall
  /Encoding exch def currentdict end definefont pop} bdef
/isroman {findfont /CharStrings get /Agrave known} bdef
/FMSR {3 1 roll 1 index dup isroman {reencode} {pop pop} ifelse
  exch FMS} bdef
/csm {1 dpi2point div -1 dpi2point div scale neg translate
 dup landscapeMode eq {pop -90 rotate}
  {rotateMode eq {90 rotate} if} ifelse} bdef
% line types: solid, dotted, dashed, dotdash
/SO { [] 0 setdash } bdef
/DO { [.5 dpi2point mul 4 dpi2point mul] 0 setdash } bdef
/DA { [6 dpi2point mul] 0 setdash } bdef
/DD { [.5 dpi2point mul 4 dpi2point mul 6 dpi2point mul 4
  dpi2point mul] 0 setdash } bdef
% macros for lines and objects
/L {lineto stroke} bdef
/MP {3 1 roll moveto 1 sub {rlineto} repeat} bdef
/AP {{rlineto} repeat} bdef
/PDlw -1 def
/W {/PDlw currentlinewidth def setlinewidth} def
/PP {closepath eofill} bdef
/DP {closepath stroke} bdef
/MR {4 -2 roll moveto dup  0 exch rlineto exch 0 rlineto
  neg 0 exch rlineto closepath} bdef
/FR {MR stroke} bdef
/PR {MR fill} bdef
/L1i {{currentfile picstr readhexstring pop} image} bdef
/tMatrix matrix def
/MakeOval {newpath tMatrix currentmatrix pop translate scale
0 0 1 0 360 arc tMatrix setmatrix} bdef
/FO {MakeOval stroke} bdef
/PO {MakeOval fill} bdef
/PD {currentlinewidth 2 div 0 360 arc fill
   PDlw -1 eq not {PDlw w /PDlw -1 def} if} def
/FA {newpath tMatrix currentmatrix pop translate scale
  0 0 1 5 -2 roll arc tMatrix setmatrix stroke} bdef
/PA {newpath tMatrix currentmatrix pop	translate 0 0 moveto scale
  0 0 1 5 -2 roll arc closepath tMatrix setmatrix fill} bdef
/FAn {newpath tMatrix currentmatrix pop translate scale
  0 0 1 5 -2 roll arcn tMatrix setmatrix stroke} bdef
/PAn {newpath tMatrix currentmatrix pop translate 0 0 moveto scale
  0 0 1 5 -2 roll arcn closepath tMatrix setmatrix fill} bdef
/vradius 0 def /hradius 0 def /lry 0 def
/lrx 0 def /uly 0 def /ulx 0 def /rad 0 def
/MRR {/vradius xdef /hradius xdef /lry xdef /lrx xdef /uly xdef
  /ulx xdef newpath tMatrix currentmatrix pop ulx hradius add uly
  vradius add translate hradius vradius scale 0 0 1 180 270 arc 
  tMatrix setmatrix lrx hradius sub uly vradius add translate
  hradius vradius scale 0 0 1 270 360 arc tMatrix setmatrix
  lrx hradius sub lry vradius sub translate hradius vradius scale
  0 0 1 0 90 arc tMatrix setmatrix ulx hradius add lry vradius sub
  translate hradius vradius scale 0 0 1 90 180 arc tMatrix setmatrix
  closepath} bdef
/FRR {MRR stroke } bdef
/PRR {MRR fill } bdef
/MlrRR {/lry xdef /lrx xdef /uly xdef /ulx xdef /rad lry uly sub 2 div def
  newpath tMatrix currentmatrix pop ulx rad add uly rad add translate
  rad rad scale 0 0 1 90 270 arc tMatrix setmatrix lrx rad sub lry rad
  sub translate rad rad scale 0 0 1 270 90 arc tMatrix setmatrix
  closepath} bdef
/FlrRR {MlrRR stroke } bdef
/PlrRR {MlrRR fill } bdef
/MtbRR {/lry xdef /lrx xdef /uly xdef /ulx xdef /rad lrx ulx sub 2 div def
  newpath tMatrix currentmatrix pop ulx rad add uly rad add translate
  rad rad scale 0 0 1 180 360 arc tMatrix setmatrix lrx rad sub lry rad
  sub translate rad rad scale 0 0 1 0 180 arc tMatrix setmatrix
  closepath} bdef
/FtbRR {MtbRR stroke } bdef
/PtbRR {MtbRR fill } bdef
/stri 6 array def /dtri 6 array def
/smat 6 array def /dmat 6 array def
/tmat1 6 array def /tmat2 6 array def /dif 3 array def
/asub {/ind2 exch def /ind1 exch def dup dup
  ind1 get exch ind2 get sub exch } bdef
/tri_to_matrix {
  2 0 asub 3 1 asub 4 0 asub 5 1 asub
  dup 0 get exch 1 get 7 -1 roll astore } bdef
/compute_transform {
  dmat dtri tri_to_matrix tmat1 invertmatrix 
  smat stri tri_to_matrix tmat2 concatmatrix } bdef
/ds {stri astore pop} bdef
/dt {dtri astore pop} bdef
/db {2 copy /cols xdef /rows xdef mul dup 3 mul string
  currentfile 
  3 index 0 eq {/ASCIIHexDecode filter}
  {/ASCII85Decode filter 3 index 2 eq {/RunLengthDecode filter} if }
  ifelse exch readstring pop
  dup 0 3 index getinterval /rbmap xdef
  dup 2 index dup getinterval /gbmap xdef
  1 index dup 2 mul exch getinterval /bbmap xdef pop pop}bdef
/it {gs np dtri aload pop moveto lineto lineto cp c
  cols rows 8 compute_transform 
  rbmap gbmap bbmap true 3 colorimage gr}bdef
/il {newpath moveto lineto stroke}bdef
currentdict end def
%%EndProlog

%%BeginSetup
MathWorks begin

0 cap

end
%%EndSetup

%%Page: 1 1
%%BeginPageSetup
%%PageBoundingBox:    36   193   574   597
MathWorks begin
bpage
%%EndPageSetup

%%BeginObject: obj1
bplot

/dpi2point 12 def
portraitMode 0432 7164 csm

    0     0  6456  4845 rc
125 dict begin %Colortable dictionary
/c0 { 0.000000 0.000000 0.000000 sr} bdef
/c1 { 1.000000 1.000000 1.000000 sr} bdef
/c2 { 0.900000 0.000000 0.000000 sr} bdef
/c3 { 0.000000 0.820000 0.000000 sr} bdef
/c4 { 0.000000 0.000000 0.800000 sr} bdef
/c5 { 0.910000 0.820000 0.320000 sr} bdef
/c6 { 1.000000 0.260000 0.820000 sr} bdef
/c7 { 0.000000 0.820000 0.820000 sr} bdef
c0
1 j
1 sg
   0    0 6457 4846 rf
24 w
0 728 5004 0 0 -728 839 1091 4 MP
PP
-5004 0 0 728 5004 0 0 -728 839 1091 5 MP stroke
16 w
DO
SO
24 w
0 sg
 839 1091 mt 5843 1091 L
 839  363 mt 5843  363 L
 839 1091 mt  839  363 L
5843 1091 mt 5843  363 L
 839 1091 mt 5843 1091 L
 839 1091 mt  839  363 L
 839 1091 mt  839 1040 L
 839  363 mt  839  413 L
%%IncludeResource: font Times-Roman
/Times-Roman /ISOLatin1Encoding 216 FMSR

 785 1318 mt 
(0) s
1951 1091 mt 1951 1040 L
1951  363 mt 1951  413 L
1897 1318 mt 
(2) s
3063 1091 mt 3063 1040 L
3063  363 mt 3063  413 L
3009 1318 mt 
(4) s
4175 1091 mt 4175 1040 L
4175  363 mt 4175  413 L
4121 1318 mt 
(6) s
5287 1091 mt 5287 1040 L
5287  363 mt 5287  413 L
5233 1318 mt 
(8) s
 839  969 mt  889  969 L
5843  969 mt 5792  969 L
 575 1046 mt 
(-1) s
 839  727 mt  889  727 L
5843  727 mt 5792  727 L
 696  804 mt 
(0) s
 839  484 mt  889  484 L
5843  484 mt 5792  484 L
 696  561 mt 
(1) s
 839 1091 mt 5843 1091 L
 839  363 mt 5843  363 L
 839 1091 mt  839  363 L
5843 1091 mt 5843  363 L
gs 838 363 5006 729 rc
/c8 { 0.000000 0.000000 1.000000 sr} bdef
c8
6 0 6 0 5 0 6 0 5 0 6 0 5 0 6 0 
6 0 5 0 6 0 5 0 6 0 5 0 6 0 5 0 
6 0 6 0 5 0 6 0 5 0 6 0 5 0 6 0 
5 0 6 0 6 0 5 0 6 0 5 0 6 0 5 0 
6 0 6 0 5 0 6 0 5 0 6 0 5 0 6 0 
5 0 6 0 6 0 5 0 6 0 5 0 6 0 5 0 
6 0 5 0 6 0 6 0 5 0 6 0 5 0 6 0 
5 0 6 0 6 0 5 0 6 0 5 0 6 0 5 0 
6 0 5 0 6 0 6 0 5 0 6 0 5 0 6 0 
5 0 6 0 5 0 6 0 6 0 5 0 6 0 5 0 
6 0 5 0 6 0 6 0 5 0 6 0 5 0 6 0 
5 0 6 0 5 0 6 0 6 0 5 0 6 0 5 0 
6 0 5 0 6 0 5 0 6 0 6 0 5 0 6 0 
5 0 6 0 5 0 6 0 6 0 5 0 6 0 5 0 
6 0 5 0 6 0 5 0 6 0 6 0 5 0 6 0 
5 0 6 0 5 0 6 0 5 0 6 0 6 0 5 0 
6 0 5 0 6 0 5 0 6 0 6 0 5 0 6 0 
5 0 6 0 5 0 6 0 5 0 6 0 6 0 5 0 
6 0 5 0 6 0 5 0 6 0 5 0 6 0 6 0 
5 0 6 0 5 0 6 0 5 0 6 0 6 0 5 0 
6 0 5 0 6 0 5 0 6 0 5 0 6 0 6 0 
5 0 6 0 5 0 6 0 5 0 6 0 5 0 6 0 
6 0 5 0 6 0 5 0 6 0 5 0 6 0 6 0 
5 0 6 0 5 0 6 0 5 0 6 0 5 0 6 0 
6 0 5 0 6 0 5 0 6 0 5 0 6 0 5 0 
6 0 6 0 5 0 6 0 5 0 6 0 5 0 6 0 
6 0 5 0 6 0 5 0 6 0 5 0 6 0 5 0 
6 0 6 0 5 0 6 0 5 0 6 0 5 0 6 0 
5 0 6 0 6 0 5 0 6 0 5 0 6 0 5 0 
6 0 6 0 5 0 6 0 5 0 6 0 5 0 6 0 
5 0 6 0 6 0 5 0 6 0 5 0 6 0 5 0 
6 0 5 0 6 0 6 0 5 0 6 0 5 0 6 0 
5 0 6 0 6 0 5 0 6 0 5 0 6 0 5 0 
6 0 5 0 6 0 6 0 5 0 6 0 5 0 6 0 
5 0 6 0 5 0 6 0 6 0 5 0 6 0 5 0 
6 0 5 0 6 0 6 0 5 0 6 0 5 0 6 0 
5 0 6 0 5 0 6 0 6 0 5 0 6 0 5 0 
6 0 5 0 6 0 4180 727 300 MP stroke
5 0 6 -74 6 -68 5 -54 6 -34 5 -12 6 12 5 34 
6 54 6 68 5 74 6 75 5 68 6 54 5 34 6 12 
5 -12 6 -34 6 -54 5 -68 6 -75 5 -74 6 -68 5 -54 
6 -34 5 -12 6 12 6 34 5 54 6 68 5 75 6 74 
5 68 6 54 6 34 5 12 6 -12 5 -34 6 -54 5 -68 
6 -74 5 -75 6 -68 6 -54 5 -34 6 -12 5 12 6 34 
5 54 6 68 5 74 6 75 6 68 5 54 6 34 5 12 
6 -12 5 -34 6 -54 6 -68 5 -75 6 -74 5 -68 6 -54 
5 -34 6 -12 5 12 6 34 6 54 5 68 6 75 5 74 
6 68 5 54 6 34 5 12 6 -12 6 -34 5 -54 6 -68 
5 -75 6 -74 5 -68 6 -54 6 -34 5 -12 6 12 5 34 
6 54 5 68 6 74 5 75 6 68 6 54 5 34 6 12 
5 -12 6 -34 5 -54 6 -68 5 -75 6 -74 6 -68 5 -54 
6 -34 5 -12 6 12 5 34 6 54 6 68 5 75 6 74 
5 68 6 54 5 34 6 12 5 -12 6 -34 6 -54 5 -68 
6 -75 5 -74 6 -68 5 -54 6 -34 5 -12 6 12 6 34 
5 54 6 68 5 74 6 75 5 68 6 54 6 34 5 12 
6 -12 5 -34 6 -54 5 -68 6 -75 5 -74 6 -68 6 -54 
5 -34 6 -12 5 12 6 34 5 54 6 68 5 75 6 74 
6 68 5 54 6 34 5 12 6 -12 5 -34 6 -54 6 -68 
5 -75 6 -74 5 -68 6 -54 5 -34 6 -12 5 12 6 34 
6 54 5 68 6 74 5 75 6 68 5 54 6 34 5 12 
6 -12 6 -34 5 -54 6 -68 5 -75 6 -74 5 -68 6 -54 
6 -34 5 -12 6 12 5 34 6 54 5 68 6 75 5 74 
6 68 6 54 5 34 6 12 5 -12 6 -34 5 -54 6 -68 
5 -75 6 -74 6 -68 5 -54 6 -34 5 -12 6 12 5 34 
6 54 6 68 5 75 6 74 5 68 6 54 5 34 6 12 
5 -12 6 -34 6 -54 5 -68 6 -75 5 -74 6 -68 5 -54 
6 -34 5 -12 6 12 6 34 5 54 6 68 5 75 6 74 
5 68 6 54 6 34 5 12 6 -12 5 -34 6 -54 5 -68 
6 -75 5 -74 6 -68 6 -54 5 -34 6 -12 5 12 6 34 
5 54 6 68 5 75 6 74 6 68 5 54 6 34 5 12 
6 -12 5 -34 6 -54 6 -68 5 -75 6 -74 5 -68 6 -54 
5 -34 6 -12 5 12 6 34 6 54 5 68 6 75 5 74 
6 68 5 54 6 34 5 12 6 -12 6 -34 5 -54 6 -68 
5 -75 6 -74 5 -68 6 -54 6 -34 5 -12 6 12 5 34 
6 54 5 68 6 74 5 75 6 68 6 54 5 34 6 12 
5 -12 6 -34 5 -54 2518 584 300 MP stroke
6 -68 5 -75 6 0 6 0 5 0 6 0 5 0 6 0 
5 0 6 0 6 0 5 0 6 0 5 0 6 0 5 0 
6 0 5 0 6 0 6 0 5 0 6 0 5 0 6 0 
5 0 6 0 5 0 6 0 6 0 5 0 6 0 5 0 
6 0 5 0 6 0 6 0 5 0 6 0 5 0 6 0 
5 0 6 0 5 0 6 0 6 0 5 0 6 0 5 0 
6 0 5 0 6 0 5 0 6 0 6 0 5 0 6 0 
5 0 6 0 5 0 6 0 6 0 5 0 6 0 5 0 
6 0 5 0 6 0 5 0 6 0 6 0 5 0 6 0 
5 0 6 0 5 0 6 0 5 0 6 0 6 0 5 0 
6 0 5 0 6 0 5 0 6 0 6 0 5 0 6 0 
5 0 6 0 5 0 6 0 5 0 6 0 6 0 5 0 
6 0 5 0 6 0 5 0 6 0 5 0 6 0 6 0 
5 0 6 0 5 0 6 0 5 0 6 0 6 0 5 0 
6 0 5 0 6 0 5 0 6 0 5 0 6 0 6 0 
5 0 6 0 5 0 6 0 5 0 6 0 5 0 6 0 
6 0 5 0 6 0 5 0 6 0 5 0 6 0 6 0 
5 0 6 0 5 0 6 0 5 0 6 0 5 0 6 0 
6 0 5 0 6 0 5 0 6 0 5 0 6 0 5 0 
6 0 6 0 5 0 6 0 5 0 6 0 5 0 6 0 
6 0 5 0 6 0 5 0 6 0 5 0 6 0 5 0 
6 0 6 0 5 0 6 0 5 0 6 0 5 0 6 0 
5 0 6 0 6 0 5 0 6 0 5 0 6 0 5 0 
6 0 6 0 5 0 6 0 5 0 6 0 5 0 6 0 
5 0 6 0 6 0 5 0 6 0 5 0 6 0 5 0 
6 0 5 0 6 0 6 0 5 0 6 0 5 0 6 0 
5 0 6 0 6 0 5 0 6 0 5 0 6 0 5 0 
6 0 5 0 6 0 6 0 5 0 6 0 5 0 6 0 
5 0 6 0 5 0 6 0 6 0 5 0 6 0 5 0 
6 0 5 0 6 0 6 0 5 0 6 0 5 0 6 0 
5 0 6 0 5 0 6 0 6 0 5 0 6 0 5 0 
6 0 5 0 6 0 5 0 6 0 6 0 5 0 6 0 
5 0 6 0 5 0 6 0 6 0 5 0 6 0 5 0 
6 0 5 0 6 0 5 0 6 0 6 0 5 0 6 0 
5 0 6 0 5 0 6 0 5 0 6 0 6 0 5 0 
6 0 5 0 6 0 5 0 6 0 6 0 5 0 6 0 
5 0 6 0 5 0 6 0 5 0 6 0 6 0 5 0 
6 0 5 0 6 0 855 727 300 MP stroke
5 0 6 0 844 727 3 MP stroke
gr

c8
1 sg
0 717 5004 0 0 -717 839 2152 4 MP
PP
-5004 0 0 717 5004 0 0 -717 839 2152 5 MP stroke
16 w
DO
SO
24 w
0 sg
 839 2152 mt 5843 2152 L
 839 1435 mt 5843 1435 L
 839 2152 mt  839 1435 L
5843 2152 mt 5843 1435 L
 839 2152 mt 5843 2152 L
 839 2152 mt  839 1435 L
 839 2152 mt  839 2101 L
 839 1435 mt  839 1485 L
 785 2379 mt 
(0) s
1951 2152 mt 1951 2101 L
1951 1435 mt 1951 1485 L
1897 2379 mt 
(2) s
3063 2152 mt 3063 2101 L
3063 1435 mt 3063 1485 L
3009 2379 mt 
(4) s
4175 2152 mt 4175 2101 L
4175 1435 mt 4175 1485 L
4121 2379 mt 
(6) s
5287 2152 mt 5287 2101 L
5287 1435 mt 5287 1485 L
5233 2379 mt 
(8) s
 839 2152 mt  889 2152 L
5843 2152 mt 5792 2152 L
 467 2229 mt 
(-50) s
 839 1793 mt  889 1793 L
5843 1793 mt 5792 1793 L
 696 1870 mt 
(0) s
 839 1435 mt  889 1435 L
5843 1435 mt 5792 1435 L
 588 1512 mt 
(50) s
 839 2152 mt 5843 2152 L
 839 1435 mt 5843 1435 L
 839 2152 mt  839 1435 L
5843 2152 mt 5843 1435 L
gs 838 1435 5006 718 rc
c8
6 0 6 0 5 0 6 0 5 0 6 0 5 0 6 0 
6 0 5 0 6 0 5 0 6 0 5 0 6 0 5 0 
6 0 6 0 5 0 6 0 5 0 6 0 5 0 6 0 
5 0 6 0 6 0 5 0 6 0 5 0 6 0 5 0 
6 0 6 0 5 0 6 0 5 0 6 0 5 0 6 0 
5 0 6 0 6 0 5 0 6 0 5 0 6 0 5 0 
6 0 5 0 6 0 6 0 5 0 6 0 5 0 6 0 
5 0 6 0 6 0 5 0 6 0 5 0 6 0 5 0 
6 0 5 0 6 0 6 0 5 0 6 0 5 0 6 0 
5 0 6 0 5 0 6 0 6 0 5 0 6 0 5 0 
6 0 5 0 6 0 6 0 5 0 6 0 5 0 6 0 
5 0 6 0 5 0 6 0 6 0 5 0 6 0 5 0 
6 0 5 0 6 0 5 0 6 0 6 0 5 0 6 0 
5 0 6 0 5 0 6 0 6 0 5 0 6 0 5 0 
6 0 5 0 6 0 5 0 6 0 6 0 5 0 6 0 
5 0 6 0 5 0 6 0 5 0 6 0 6 0 5 0 
6 0 5 0 6 0 5 0 6 0 6 0 5 0 6 0 
5 0 6 0 5 0 6 0 5 0 6 0 6 0 5 0 
6 0 5 0 6 0 5 0 6 0 5 0 6 0 6 0 
5 0 6 0 5 0 6 0 5 0 6 0 6 0 5 0 
6 0 5 0 6 0 5 0 6 0 5 0 6 0 6 0 
5 0 6 0 5 0 6 0 5 0 6 0 5 0 6 0 
6 0 5 0 6 0 5 0 6 0 5 0 6 0 6 0 
5 0 6 0 5 0 6 0 5 0 6 0 5 0 6 0 
6 0 5 0 6 0 5 0 6 0 5 0 6 0 5 0 
6 0 6 0 5 0 6 0 5 0 6 0 5 0 6 0 
6 0 5 0 6 0 5 0 6 0 5 0 6 0 5 0 
6 0 6 0 5 0 6 0 5 0 6 0 5 0 6 0 
5 0 6 0 6 0 5 0 6 0 5 0 6 0 5 0 
6 0 6 0 5 0 6 0 5 0 6 0 5 0 6 0 
5 0 6 0 6 0 5 0 6 0 5 -1 6 1 5 0 
6 0 5 0 6 1 6 0 5 0 6 1 5 0 6 0 
5 0 6 -1 6 -1 5 -1 6 -1 5 -2 6 -1 5 -1 
6 -1 5 0 6 1 6 2 5 2 6 4 5 4 6 4 
5 4 6 3 5 2 6 -1 6 -2 5 -4 6 -7 5 -8 
6 -10 5 -9 6 -9 6 -6 5 -3 6 0 5 6 6 9 
5 13 6 17 5 18 6 17 6 16 5 11 6 5 5 -2 
6 -9 5 -17 6 -23 4180 1772 300 MP stroke
5 -27 6 -28 6 -27 5 -23 6 -17 5 -6 6 3 5 15 
6 24 6 32 5 38 6 39 5 36 6 31 5 20 6 8 
5 -6 6 -19 6 -31 5 -40 6 -46 5 -47 6 -44 5 -35 
6 -23 5 -9 6 7 6 23 5 36 6 45 5 52 6 52 
5 47 6 38 6 25 5 8 6 -8 5 -24 6 -38 5 -49 
6 -54 5 -54 6 -49 6 -39 5 -25 6 -9 5 8 6 25 
5 40 6 49 5 55 6 55 6 50 5 40 6 25 5 9 
6 -9 5 -25 6 -40 6 -50 5 -55 6 -55 5 -50 6 -40 
5 -25 6 -9 5 9 6 25 6 40 5 50 6 55 5 55 
6 50 5 40 6 25 5 9 6 -9 6 -25 5 -40 6 -50 
5 -55 6 -55 5 -50 6 -40 6 -25 5 -9 6 9 5 25 
6 40 5 50 6 55 5 55 6 50 6 40 5 25 6 9 
5 -9 6 -25 5 -40 6 -50 5 -55 6 -55 6 -50 5 -40 
6 -25 5 -9 6 9 5 25 6 40 6 50 5 55 6 55 
5 50 6 40 5 25 6 9 5 -9 6 -25 6 -40 5 -50 
6 -55 5 -55 6 -50 5 -40 6 -25 5 -9 6 9 6 25 
5 40 6 50 5 55 6 55 5 50 6 40 6 25 5 9 
6 -9 5 -25 6 -40 5 -50 6 -55 5 -55 6 -50 6 -40 
5 -25 6 -9 5 9 6 25 5 40 6 50 5 55 6 55 
6 50 5 40 6 25 5 9 6 -9 5 -25 6 -40 6 -50 
5 -55 6 -55 5 -50 6 -40 5 -25 6 -9 5 9 6 25 
6 40 5 50 6 55 5 55 6 50 5 40 6 25 5 9 
6 -9 6 -25 5 -40 6 -50 5 -55 6 -55 5 -50 6 -40 
6 -25 5 -9 6 9 5 25 6 40 5 50 6 55 5 55 
6 50 6 40 5 25 6 9 5 -9 6 -25 5 -40 6 -50 
5 -55 6 -55 6 -50 5 -40 6 -25 5 -9 6 9 5 25 
6 40 6 50 5 55 6 55 5 50 6 40 5 25 6 9 
5 -9 6 -25 6 -40 5 -50 6 -55 5 -55 6 -50 5 -40 
6 -25 5 -9 6 9 6 25 5 40 6 50 5 55 6 55 
5 50 6 40 6 25 5 9 6 -9 5 -25 6 -40 5 -50 
6 -55 5 -55 6 -50 6 -40 5 -25 6 -9 5 9 6 25 
5 40 6 50 5 55 6 55 6 49 5 40 6 25 5 8 
6 -9 5 -25 6 -39 6 -49 5 -54 6 -54 5 -49 6 -38 
5 -24 6 -8 5 8 6 25 6 38 5 47 6 52 5 52 
6 45 5 36 6 23 5 7 6 -9 6 -23 5 -35 6 -44 
5 -47 6 -46 5 -40 6 -31 6 -19 5 -6 6 8 5 20 
6 31 5 36 6 39 5 38 6 32 6 24 5 15 6 3 
5 -6 6 -17 5 -23 2518 1732 300 MP stroke
6 -27 5 -28 6 -27 6 -23 5 -17 6 -9 5 -2 6 5 
5 11 6 16 6 17 5 18 6 17 5 13 6 9 5 6 
6 0 5 -3 6 -6 6 -9 5 -9 6 -10 5 -8 6 -7 
5 -4 6 -2 5 -1 6 2 6 3 5 4 6 4 5 4 
6 4 5 2 6 2 6 1 5 0 6 -1 5 -1 6 -1 
5 -2 6 -1 5 -1 6 -1 6 -1 5 0 6 0 5 0 
6 1 5 0 6 0 5 1 6 0 6 0 5 0 6 1 
5 -1 6 0 5 0 6 0 6 0 5 0 6 0 5 0 
6 0 5 0 6 0 5 0 6 0 6 0 5 0 6 0 
5 0 6 0 5 0 6 0 5 0 6 0 6 0 5 0 
6 0 5 0 6 0 5 0 6 0 6 0 5 0 6 0 
5 0 6 0 5 0 6 0 5 0 6 0 6 0 5 0 
6 0 5 0 6 0 5 0 6 0 5 0 6 0 6 0 
5 0 6 0 5 0 6 0 5 0 6 0 6 0 5 0 
6 0 5 0 6 0 5 0 6 0 5 0 6 0 6 0 
5 0 6 0 5 0 6 0 5 0 6 0 5 0 6 0 
6 0 5 0 6 0 5 0 6 0 5 0 6 0 6 0 
5 0 6 0 5 0 6 0 5 0 6 0 5 0 6 0 
6 0 5 0 6 0 5 0 6 0 5 0 6 0 5 0 
6 0 6 0 5 0 6 0 5 0 6 0 5 0 6 0 
6 0 5 0 6 0 5 0 6 0 5 0 6 0 5 0 
6 0 6 0 5 0 6 0 5 0 6 0 5 0 6 0 
5 0 6 0 6 0 5 0 6 0 5 0 6 0 5 0 
6 0 6 0 5 0 6 0 5 0 6 0 5 0 6 0 
5 0 6 0 6 0 5 0 6 0 5 0 6 0 5 0 
6 0 5 0 6 0 6 0 5 0 6 0 5 0 6 0 
5 0 6 0 6 0 5 0 6 0 5 0 6 0 5 0 
6 0 5 0 6 0 6 0 5 0 6 0 5 0 6 0 
5 0 6 0 5 0 6 0 6 0 5 0 6 0 5 0 
6 0 5 0 6 0 6 0 5 0 6 0 5 0 6 0 
5 0 6 0 5 0 6 0 6 0 5 0 6 0 5 0 
6 0 5 0 6 0 5 0 6 0 6 0 5 0 6 0 
5 0 6 0 5 0 6 0 6 0 5 0 6 0 5 0 
6 0 5 0 6 0 5 0 6 0 6 0 5 0 6 0 
5 0 6 0 5 0 6 0 5 0 6 0 6 0 5 0 
6 0 5 0 6 0 5 0 6 0 6 0 5 0 6 0 
5 0 6 0 5 0 6 0 5 0 6 0 6 0 5 0 
6 0 5 0 6 0 855 1793 300 MP stroke
5 0 6 0 844 1793 3 MP stroke
gr

c8
1 sg
0 718 5004 0 0 -718 839 3214 4 MP
PP
-5004 0 0 718 5004 0 0 -718 839 3214 5 MP stroke
16 w
DO
SO
24 w
0 sg
 839 3214 mt 5843 3214 L
 839 2496 mt 5843 2496 L
 839 3214 mt  839 2496 L
5843 3214 mt 5843 2496 L
 839 3214 mt 5843 3214 L
 839 3214 mt  839 2496 L
 839 3214 mt  839 3163 L
 839 2496 mt  839 2546 L
 785 3441 mt 
(0) s
1951 3214 mt 1951 3163 L
1951 2496 mt 1951 2546 L
1897 3441 mt 
(2) s
3063 3214 mt 3063 3163 L
3063 2496 mt 3063 2546 L
3009 3441 mt 
(4) s
4175 3214 mt 4175 3163 L
4175 2496 mt 4175 2546 L
4121 3441 mt 
(6) s
5287 3214 mt 5287 3163 L
5287 2496 mt 5287 2546 L
5233 3441 mt 
(8) s
 839 3214 mt  889 3214 L
5843 3214 mt 5792 3214 L
 467 3291 mt 
(-50) s
 839 2855 mt  889 2855 L
5843 2855 mt 5792 2855 L
 696 2932 mt 
(0) s
 839 2496 mt  889 2496 L
5843 2496 mt 5792 2496 L
 588 2573 mt 
(50) s
 839 3214 mt 5843 3214 L
 839 2496 mt 5843 2496 L
 839 3214 mt  839 2496 L
5843 3214 mt 5843 2496 L
gs 838 2496 5006 719 rc
c8
6 0 6 0 5 0 6 0 5 0 6 0 5 0 6 0 
6 0 5 0 6 0 5 0 6 0 5 0 6 0 5 0 
6 0 6 0 5 0 6 0 5 0 6 0 5 0 6 0 
5 0 6 0 6 0 5 0 6 0 5 0 6 0 5 0 
6 0 6 0 5 0 6 0 5 0 6 0 5 0 6 0 
5 0 6 0 6 0 5 0 6 0 5 0 6 0 5 0 
6 0 5 0 6 0 6 0 5 0 6 0 5 0 6 0 
5 0 6 0 6 0 5 0 6 0 5 0 6 0 5 0 
6 0 5 0 6 0 6 0 5 0 6 0 5 0 6 0 
5 0 6 0 5 0 6 0 6 0 5 0 6 0 5 0 
6 0 5 0 6 0 6 0 5 0 6 0 5 0 6 0 
5 0 6 0 5 0 6 0 6 0 5 0 6 0 5 0 
6 0 5 0 6 0 5 0 6 0 6 0 5 0 6 0 
5 0 6 0 5 0 6 0 6 0 5 0 6 0 5 0 
6 0 5 0 6 0 5 0 6 0 6 0 5 0 6 0 
5 0 6 0 5 0 6 0 5 0 6 0 6 0 5 0 
6 0 5 0 6 0 5 0 6 0 6 0 5 0 6 0 
5 0 6 0 5 0 6 0 5 0 6 0 6 0 5 0 
6 0 5 0 6 0 5 0 6 0 5 0 6 0 6 0 
5 0 6 0 5 0 6 0 5 0 6 0 6 0 5 0 
6 0 5 0 6 0 5 1 6 0 5 0 6 0 6 0 
5 0 6 0 5 0 6 0 5 0 6 -1 5 0 6 0 
6 0 5 0 6 0 5 0 6 0 5 0 6 0 6 1 
5 0 6 0 5 0 6 0 5 0 6 0 5 0 6 0 
6 0 5 -1 6 0 5 0 6 0 5 0 6 0 5 0 
6 0 6 0 5 0 6 1 5 0 6 0 5 0 6 0 
6 0 5 0 6 0 5 0 6 0 5 -1 6 0 5 0 
6 0 6 0 5 0 6 0 5 0 6 0 5 0 6 0 
5 1 6 0 6 0 5 0 6 0 5 0 6 0 5 0 
6 0 6 0 5 -1 6 0 5 0 6 0 5 0 6 0 
5 0 6 0 6 0 5 0 6 1 5 0 6 0 5 0 
6 0 5 1 6 0 6 -1 5 0 6 0 5 -1 6 -1 
5 -1 6 0 6 -1 5 0 6 0 5 0 6 1 5 2 
6 2 5 2 6 3 6 2 5 2 6 1 5 0 6 -1 
5 -3 6 -4 5 -6 6 -6 6 -7 5 -6 6 -4 5 -3 
6 1 5 3 6 7 6 10 5 12 6 13 5 13 6 12 
5 8 6 5 5 -2 6 -7 6 -13 5 -17 6 -22 5 -23 
6 -22 5 -20 6 -13 4180 2938 300 MP stroke
5 -6 6 2 6 12 5 21 6 28 5 32 6 34 5 32 
6 27 6 18 5 8 6 -5 5 -17 6 -28 5 -36 6 -43 
5 -43 6 -40 6 -33 5 -22 6 -9 5 6 6 21 5 34 
6 44 5 49 6 50 6 46 5 36 6 25 5 8 6 -7 
5 -24 6 -37 6 -48 5 -53 6 -53 5 -49 6 -38 5 -25 
6 -9 5 8 6 25 6 39 5 49 6 55 5 55 6 49 
5 40 6 25 5 9 6 -9 6 -25 5 -40 6 -49 5 -56 
6 -55 5 -50 6 -40 6 -25 5 -9 6 9 5 25 6 40 
5 50 6 56 5 55 6 50 6 40 5 25 6 9 5 -9 
6 -25 5 -40 6 -50 5 -56 6 -55 6 -50 5 -40 6 -25 
5 -9 6 9 5 25 6 40 6 50 5 56 6 55 5 50 
6 40 5 25 6 9 5 -9 6 -25 6 -40 5 -50 6 -56 
5 -55 6 -50 5 -40 6 -25 5 -9 6 9 6 25 5 40 
6 50 5 56 6 55 5 50 6 40 6 25 5 9 6 -9 
5 -25 6 -40 5 -50 6 -56 5 -55 6 -50 6 -40 5 -25 
6 -9 5 9 6 25 5 40 6 50 5 56 6 55 6 50 
5 40 6 25 5 9 6 -9 5 -25 6 -40 6 -50 5 -56 
6 -55 5 -50 6 -40 5 -25 6 -9 5 9 6 25 6 40 
5 50 6 56 5 55 6 50 5 40 6 25 5 9 6 -9 
6 -25 5 -40 6 -50 5 -55 6 -56 5 -50 6 -40 6 -25 
5 -9 6 9 5 25 6 40 5 50 6 55 5 56 6 50 
6 40 5 25 6 9 5 -9 6 -25 5 -40 6 -50 5 -55 
6 -56 6 -50 5 -40 6 -25 5 -9 6 9 5 25 6 40 
6 50 5 55 6 56 5 50 6 40 5 25 6 9 5 -9 
6 -25 6 -40 5 -50 6 -55 5 -56 6 -50 5 -40 6 -25 
5 -9 6 9 6 25 5 40 6 50 5 55 6 56 5 50 
6 40 6 25 5 9 6 -9 5 -25 6 -40 5 -50 6 -55 
5 -56 6 -50 6 -40 5 -25 6 -9 5 9 6 25 5 40 
6 50 5 55 6 56 6 50 5 40 6 25 5 9 6 -9 
5 -25 6 -40 6 -50 5 -55 6 -56 5 -50 6 -40 5 -25 
6 -9 5 9 6 25 6 40 5 50 6 55 5 56 6 49 
5 40 6 25 5 9 6 -9 6 -25 5 -40 6 -49 5 -55 
6 -55 5 -49 6 -39 6 -25 5 -8 6 9 5 25 6 38 
5 49 6 53 5 53 6 48 6 37 5 24 6 7 5 -8 
6 -25 5 -36 6 -46 5 -50 6 -49 6 -44 5 -34 6 -21 
5 -6 6 9 5 22 6 33 6 40 5 43 6 43 5 36 
6 28 5 17 6 5 5 -8 6 -18 6 -27 5 -32 6 -34 
5 -32 6 -28 5 -21 2518 2930 300 MP stroke
6 -12 5 -2 6 6 6 13 5 20 6 22 5 23 6 22 
5 17 6 13 6 7 5 2 6 -5 5 -8 6 -12 5 -13 
6 -13 5 -12 6 -10 6 -7 5 -3 6 -1 5 3 6 4 
5 6 6 7 5 6 6 6 6 4 5 3 6 1 5 0 
6 -1 5 -2 6 -2 6 -3 5 -2 6 -2 5 -2 6 -1 
5 0 6 0 5 0 6 1 6 0 5 1 6 1 5 1 
6 0 5 0 6 1 5 0 6 -1 6 0 5 0 6 0 
5 0 6 -1 5 0 6 0 6 0 5 0 6 0 5 0 
6 0 5 0 6 0 5 1 6 0 6 0 5 0 6 0 
5 0 6 0 5 0 6 0 5 0 6 -1 6 0 5 0 
6 0 5 0 6 0 5 0 6 0 6 0 5 0 6 0 
5 1 6 0 5 0 6 0 5 0 6 0 6 0 5 0 
6 0 5 0 6 -1 5 0 6 0 5 0 6 0 6 0 
5 0 6 0 5 0 6 0 5 1 6 0 6 0 5 0 
6 0 5 0 6 0 5 0 6 0 5 0 6 -1 6 0 
5 0 6 0 5 0 6 0 5 0 6 0 5 0 6 0 
6 1 5 0 6 0 5 0 6 0 5 0 6 0 6 0 
5 0 6 0 5 -1 6 0 5 0 6 0 5 0 6 0 
6 0 5 0 6 0 5 0 6 0 5 0 6 0 5 0 
6 0 6 0 5 0 6 0 5 0 6 0 5 0 6 0 
6 0 5 0 6 0 5 0 6 0 5 0 6 0 5 0 
6 0 6 0 5 0 6 0 5 0 6 0 5 0 6 0 
5 0 6 0 6 0 5 0 6 0 5 0 6 0 5 0 
6 0 6 0 5 0 6 0 5 0 6 0 5 0 6 0 
5 0 6 0 6 0 5 0 6 0 5 0 6 0 5 0 
6 0 5 0 6 0 6 0 5 0 6 0 5 0 6 0 
5 0 6 0 6 0 5 0 6 0 5 0 6 0 5 0 
6 0 5 0 6 0 6 0 5 0 6 0 5 0 6 0 
5 0 6 0 5 0 6 0 6 0 5 0 6 0 5 0 
6 0 5 0 6 0 6 0 5 0 6 0 5 0 6 0 
5 0 6 0 5 0 6 0 6 0 5 0 6 0 5 0 
6 0 5 0 6 0 5 0 6 0 6 0 5 0 6 0 
5 0 6 0 5 0 6 0 6 0 5 0 6 0 5 0 
6 0 5 0 6 0 5 0 6 0 6 0 5 0 6 0 
5 0 6 0 5 0 6 0 5 0 6 0 6 0 5 0 
6 0 5 0 6 0 5 0 6 0 6 0 5 0 6 0 
5 0 6 0 5 0 6 0 5 0 6 0 6 0 5 0 
6 0 5 0 6 0 855 2855 300 MP stroke
5 0 6 0 844 2855 3 MP stroke
gr

c8
1 sg
0 754 5004 0 0 -754 839 4312 4 MP
PP
-5004 0 0 754 5004 0 0 -754 839 4312 5 MP stroke
16 w
DO
SO
24 w
0 sg
 839 4312 mt 5843 4312 L
 839 3558 mt 5843 3558 L
 839 4312 mt  839 3558 L
5843 4312 mt 5843 3558 L
 839 4312 mt 5843 4312 L
 839 4312 mt  839 3558 L
 839 4312 mt  839 4261 L
 839 3558 mt  839 3608 L
 785 4539 mt 
(0) s
1951 4312 mt 1951 4261 L
1951 3558 mt 1951 3608 L
1897 4539 mt 
(2) s
3063 4312 mt 3063 4261 L
3063 3558 mt 3063 3608 L
3009 4539 mt 
(4) s
4175 4312 mt 4175 4261 L
4175 3558 mt 4175 3608 L
4121 4539 mt 
(6) s
5287 4312 mt 5287 4261 L
5287 3558 mt 5287 3608 L
5233 4539 mt 
(8) s
 839 4312 mt  889 4312 L
5843 4312 mt 5792 4312 L
 696 4389 mt 
(0) s
 839 3558 mt  889 3558 L
5843 3558 mt 5792 3558 L
 588 3635 mt 
(50) s
 839 4312 mt 5843 4312 L
 839 3558 mt 5843 3558 L
 839 4312 mt  839 3558 L
5843 4312 mt 5843 3558 L
gs 838 3558 5006 755 rc
c8
6 0 6 0 5 0 6 0 5 0 6 0 5 0 6 0 
6 0 5 0 6 -1 5 0 6 0 5 0 6 0 5 0 
6 0 6 0 5 0 6 0 5 0 6 0 5 0 6 0 
5 0 6 0 6 0 5 0 6 0 5 0 6 0 5 0 
6 0 6 0 5 0 6 0 5 0 6 0 5 0 6 0 
5 0 6 0 6 0 5 0 6 0 5 0 6 0 5 0 
6 0 5 0 6 0 6 0 5 0 6 0 5 0 6 0 
5 0 6 0 6 0 5 0 6 0 5 0 6 0 5 0 
6 0 5 0 6 0 6 0 5 0 6 0 5 0 6 0 
5 0 6 0 5 0 6 0 6 0 5 0 6 0 5 0 
6 0 5 0 6 0 6 0 5 0 6 0 5 0 6 0 
5 0 6 0 5 0 6 0 6 0 5 0 6 0 5 0 
6 0 5 0 6 0 5 0 6 0 6 0 5 0 6 0 
5 0 6 0 5 0 6 0 6 0 5 0 6 0 5 0 
6 0 5 0 6 0 5 0 6 0 6 0 5 0 6 0 
5 0 6 0 5 0 6 0 5 0 6 0 6 0 5 0 
6 0 5 0 6 0 5 0 6 0 6 0 5 0 6 0 
5 0 6 0 5 0 6 0 5 0 6 0 6 0 5 0 
6 0 5 0 6 0 5 0 6 0 5 0 6 1 6 0 
5 0 6 0 5 0 6 0 5 0 6 0 6 0 5 0 
6 0 5 0 6 0 5 0 6 0 5 0 6 0 6 0 
5 0 6 0 5 0 6 0 5 0 6 0 5 0 6 0 
6 0 5 0 6 0 5 0 6 0 5 0 6 0 6 0 
5 0 6 0 5 0 6 0 5 0 6 0 5 0 6 0 
6 0 5 0 6 0 5 0 6 0 5 0 6 0 5 0 
6 0 6 0 5 0 6 0 5 0 6 0 5 0 6 0 
6 0 5 0 6 0 5 0 6 0 5 0 6 0 5 0 
6 0 6 0 5 0 6 0 5 0 6 0 5 0 6 0 
5 0 6 0 6 0 5 0 6 0 5 0 6 0 5 0 
6 0 6 0 5 0 6 0 5 0 6 0 5 0 6 0 
5 0 6 0 6 0 5 0 6 1 5 0 6 0 5 0 
6 0 5 1 6 0 6 0 5 1 6 0 5 1 6 1 
5 0 6 1 6 1 5 1 6 1 5 1 6 1 5 2 
6 1 5 2 6 2 6 2 5 2 6 2 5 3 6 3 
5 2 6 4 5 3 6 3 6 4 5 4 6 4 5 5 
6 5 5 5 6 5 6 5 5 6 6 5 5 6 6 7 
5 6 6 7 5 6 6 7 6 7 5 8 6 7 5 7 
6 8 5 7 6 8 4180 4130 300 MP stroke
5 7 6 8 6 7 5 8 6 7 5 8 6 7 5 7 
6 7 6 7 5 7 6 7 5 6 6 6 5 6 6 6 
5 6 6 5 6 5 5 5 6 5 5 4 6 4 5 4 
6 4 5 3 6 4 6 3 5 3 6 2 5 3 6 2 
5 2 6 2 6 2 5 2 6 1 5 2 6 1 5 1 
6 1 5 1 6 1 6 1 5 1 6 0 5 1 6 0 
5 1 6 0 5 0 6 1 6 0 5 0 6 0 5 0 
6 1 5 0 6 0 6 0 5 0 6 0 5 0 6 0 
5 0 6 0 5 0 6 0 6 0 5 0 6 0 5 0 
6 0 5 0 6 0 5 0 6 0 6 0 5 0 6 0 
5 0 6 0 5 0 6 0 6 0 5 0 6 0 5 0 
6 0 5 0 6 0 5 0 6 0 6 0 5 0 6 0 
5 0 6 0 5 0 6 0 5 0 6 0 6 0 5 0 
6 0 5 0 6 0 5 0 6 0 6 0 5 0 6 0 
5 0 6 0 5 0 6 0 5 0 6 0 6 0 5 0 
6 0 5 0 6 0 5 0 6 0 5 0 6 0 6 0 
5 0 6 0 5 0 6 0 5 0 6 0 6 0 5 0 
6 0 5 0 6 0 5 0 6 0 5 0 6 0 6 0 
5 0 6 0 5 0 6 0 5 0 6 0 5 0 6 0 
6 0 5 0 6 0 5 0 6 0 5 0 6 0 6 0 
5 0 6 0 5 0 6 0 5 0 6 0 5 0 6 0 
6 0 5 0 6 0 5 0 6 0 5 0 6 0 5 0 
6 0 6 0 5 0 6 0 5 0 6 0 5 0 6 0 
6 0 5 0 6 0 5 0 6 0 5 0 6 0 5 0 
6 0 6 0 5 0 6 0 5 0 6 0 5 0 6 0 
5 0 6 0 6 0 5 0 6 0 5 0 6 0 5 0 
6 0 6 0 5 0 6 0 5 0 6 0 5 0 6 0 
5 0 6 0 6 0 5 0 6 0 5 0 6 0 5 0 
6 0 5 0 6 0 6 0 5 0 6 0 5 0 6 0 
5 0 6 0 6 0 5 0 6 0 5 0 6 0 5 0 
6 0 5 0 6 0 6 0 5 0 6 -1 5 0 6 0 
5 0 6 0 5 -1 6 0 6 0 5 -1 6 0 5 -1 
6 0 5 -1 6 -1 6 -1 5 -1 6 -1 5 -1 6 -1 
5 -2 6 -1 5 -2 6 -2 6 -2 5 -2 6 -2 5 -3 
6 -2 5 -3 6 -3 5 -4 6 -3 6 -4 5 -4 6 -4 
5 -4 6 -5 5 -5 6 -5 6 -5 5 -6 6 -6 5 -6 
6 -6 5 -6 6 -7 5 -7 6 -7 6 -7 5 -7 6 -7 
5 -8 6 -7 5 -8 2518 4108 300 MP stroke
6 -7 5 -8 6 -7 6 -8 5 -7 6 -8 5 -7 6 -7 
5 -8 6 -7 6 -7 5 -6 6 -7 5 -6 6 -7 5 -6 
6 -5 5 -6 6 -5 6 -5 5 -5 6 -5 5 -5 6 -4 
5 -4 6 -4 5 -3 6 -3 6 -4 5 -2 6 -3 5 -3 
6 -2 5 -2 6 -2 6 -2 5 -2 6 -1 5 -2 6 -1 
5 -1 6 -1 5 -1 6 -1 6 -1 5 0 6 -1 5 -1 
6 0 5 -1 6 0 5 0 6 -1 6 0 5 0 6 0 
5 0 6 -1 5 0 6 0 6 0 5 0 6 0 5 0 
6 0 5 0 6 0 5 0 6 0 6 0 5 0 6 0 
5 0 6 0 5 0 6 0 5 0 6 0 6 0 5 0 
6 0 5 0 6 0 5 0 6 0 6 0 5 0 6 0 
5 0 6 0 5 0 6 0 5 0 6 0 6 0 5 0 
6 0 5 0 6 0 5 0 6 0 5 0 6 0 6 0 
5 0 6 0 5 0 6 0 5 0 6 0 6 0 5 0 
6 0 5 0 6 0 5 0 6 0 5 0 6 0 6 0 
5 0 6 0 5 0 6 0 5 0 6 0 5 0 6 0 
6 0 5 0 6 0 5 0 6 0 5 0 6 0 6 0 
5 0 6 0 5 0 6 0 5 0 6 0 5 0 6 0 
6 0 5 0 6 0 5 0 6 0 5 0 6 0 5 -1 
6 0 6 0 5 0 6 0 5 0 6 0 5 0 6 0 
6 0 5 0 6 0 5 0 6 0 5 0 6 0 5 0 
6 0 6 0 5 0 6 0 5 0 6 0 5 0 6 0 
5 0 6 0 6 0 5 0 6 0 5 0 6 0 5 0 
6 0 6 0 5 0 6 0 5 0 6 0 5 0 6 0 
5 0 6 0 6 0 5 0 6 0 5 0 6 0 5 0 
6 0 5 0 6 0 6 0 5 0 6 0 5 0 6 0 
5 0 6 0 6 0 5 0 6 0 5 0 6 0 5 0 
6 0 5 0 6 0 6 0 5 0 6 0 5 0 6 0 
5 0 6 0 5 0 6 0 6 0 5 0 6 0 5 0 
6 0 5 0 6 0 6 0 5 0 6 0 5 0 6 0 
5 0 6 0 5 0 6 0 6 0 5 0 6 0 5 0 
6 0 5 0 6 0 5 0 6 0 6 0 5 0 6 0 
5 0 6 0 5 0 6 0 6 0 5 0 6 0 5 0 
6 0 5 0 6 0 5 0 6 0 6 0 5 0 6 0 
5 0 6 0 5 0 6 0 5 0 6 0 6 0 5 0 
6 0 5 0 6 0 5 0 6 0 6 0 5 0 6 0 
5 0 6 0 5 0 6 0 5 0 6 0 6 0 5 0 
6 0 5 0 6 0 855 4312 300 MP stroke
5 0 6 0 844 4312 3 MP stroke
gr

c8

end %%Color Dict

eplot
%%EndObject

epage
end

showpage

%%Trailer
%%EOF
