\relax 
\@writefile{lot}{\contentsline {table}{\numberline {1}{\ignorespaces Confusion Matrix}}{2}{}\protected@file@percent }
\@writefile{toc}{\contentsline {section}{\numberline {0.1}Evaluating Binary Classifiers}{2}{}\protected@file@percent }
\@writefile{toc}{\contentsline {subsection}{\numberline {0.1.1}Hit Rates, Recall, False Alarm Rates, Precision}{2}{}\protected@file@percent }
\@writefile{toc}{\contentsline {subsection}{\numberline {0.1.2}ROC and PR curves}{3}{}\protected@file@percent }
\@writefile{toc}{\contentsline {subsection}{\numberline {0.1.3}Relationship between Precision and Hit Rates and False Alarm Rates}{4}{}\protected@file@percent }
\newlabel{eqn:p}{{5}{4}{}{}{}}
\@writefile{toc}{\contentsline {subsection}{\numberline {0.1.4}The 2AFC score}{5}{}\protected@file@percent }
\@writefile{toc}{\contentsline {subsection}{\numberline {0.1.5}The $F_\beta $ score}{5}{}\protected@file@percent }
\@writefile{toc}{\contentsline {paragraph}{Relationship between $F_1$ and the ROC:}{6}{}\protected@file@percent }
\newlabel{eqn:2f1}{{20}{6}{}{}{}}
\@writefile{toc}{\contentsline {section}{\numberline {0.2}Baseline}{7}{}\protected@file@percent }
\@writefile{lof}{\contentsline {figure}{\numberline {1}{\ignorespaces \it  Analysis of ROC case for $d'=2.5$ and different prior probability rates. Top Left: The ROC curve is invariant to the prior probability $\pi $. Top Right. The Precision Recall Curve is sensitive to $\pi $. Bottom left: The $r/f$ ratio favors regions of the ROC with low false alarm rates. Bottom right: As a consequence the smaller the prior probability the more $F_1$ favors regions with low false alarm rates. }}{8}{}\protected@file@percent }
\newlabel{fig:gaussian}{{1}{8}{}{}{}}
\gdef \@abspage@last{8}
