\relax 
\newlabel{fig:mdp}{{1}{3}{}{}{}}
\newlabel{lem:transposemax}{{1.1}{3}{}{}{}}
\newlabel{thm:transposemax}{{1.1}{3}{}{}{}}
\newlabel{lem:transposemax}{{1.1}{4}{}{}{}}
\newlabel{eqn:rbell}{{28}{5}{}{}{}}
\newlabel{rem:bellman}{{1.3}{6}{}{}{}}
\newlabel{eqn:a1}{{39}{6}{}{}{}}
\newlabel{rem:tdr}{{1.4}{6}{}{}{}}
\newlabel{fig:pomdp}{{3}{7}{}{}{}}
\newlabel{eqn:vt1}{{63}{9}{}{}{}}
\newlabel{eqn:a1}{{64}{9}{}{}{}}
\newlabel{eqn:vt2}{{66}{9}{}{}{}}
\newlabel{eqn:vt3}{{70}{10}{}{}{}}
\newlabel{eqn:wtu}{{72}{10}{}{}{}}
\newlabel{eqn:wt}{{74}{10}{}{}{}}
\newlabel{lem:cmax}{{5.2}{15}{}{}{}}
\newlabel{eqn:st}{{125}{16}{}{}{}}
\newlabel{eqn:rt}{{126}{16}{}{}{}}
\newlabel{eqn:ytp1}{{127}{16}{}{}{}}
\newlabel{eqn:ztp1}{{146}{18}{}{}{}}
\gdef \@abspage@last{18}
