%!PS-Adobe-2.0
%%Creator: gnuplot
%%DocumentFonts: Helvetica
%%BoundingBox: 50 50 410 302
%%Pages: (atend)
%%EndComments
/gnudict 40 dict def
gnudict begin
/Color false def
/gnulinewidth 5.000 def
/vshift -40 def
/dl {10 mul} def
/hpt 31.5 def
/vpt 31.5 def
/vpt2 vpt 2 mul def
/hpt2 hpt 2 mul def
/Lshow { currentpoint stroke moveto
  0 vshift rmoveto show } def
/Rshow { currentpoint stroke moveto
  dup stringwidth pop neg vshift rmoveto show } def
/Cshow { currentpoint stroke moveto
  dup stringwidth pop -2 div vshift rmoveto show } def
/DL { Color {setrgbcolor [] 0 setdash pop}
 {pop pop pop 0 setdash} ifelse } def
/BL { stroke gnulinewidth 2 mul setlinewidth } def
/AL { stroke gnulinewidth 2 div setlinewidth } def
/PL { stroke gnulinewidth setlinewidth } def
/LTb { BL [] 0 0 0 DL } def
/LTa { AL [1 dl 2 dl] 0 setdash 0 0 0 setrgbcolor } def
/LT0 { PL [] 0 1 0 DL } def
/LT1 { PL [4 dl 2 dl] 0 0 1 DL } def
/LT2 { PL [2 dl 3 dl] 1 0 0 DL } def
/LT3 { PL [1 dl 1.5 dl] 1 0 1 DL } def
/LT4 { PL [5 dl 2 dl 1 dl 2 dl] 0 1 1 DL } def
/LT5 { PL [4 dl 3 dl 1 dl 3 dl] 1 1 0 DL } def
/LT6 { PL [2 dl 2 dl 2 dl 4 dl] 0 0 0 DL } def
/LT7 { PL [2 dl 2 dl 2 dl 2 dl 2 dl 4 dl] 1 0.3 0 DL } def
/LT8 { PL [2 dl 2 dl 2 dl 2 dl 2 dl 2 dl 2 dl 4 dl] 0.5 0.5 0.5 DL } def
/M {moveto} def
/L {lineto} def
/P { stroke [] 0 setdash
  currentlinewidth 2 div sub moveto
  0 currentlinewidth rlineto  stroke } def
/D { stroke [] 0 setdash  2 copy  vpt add moveto
  hpt neg vpt neg rlineto  hpt vpt neg rlineto
  hpt vpt rlineto  hpt neg vpt rlineto  closepath  stroke
  P  } def
/A { stroke [] 0 setdash  vpt sub moveto  0 vpt2 rlineto
  currentpoint stroke moveto
  hpt neg vpt neg rmoveto  hpt2 0 rlineto stroke
  } def
/B { stroke [] 0 setdash  2 copy  exch hpt sub exch vpt add moveto
  0 vpt2 neg rlineto  hpt2 0 rlineto  0 vpt2 rlineto
  hpt2 neg 0 rlineto  closepath  stroke
  P  } def
/C { stroke [] 0 setdash  exch hpt sub exch vpt add moveto
  hpt2 vpt2 neg rlineto  currentpoint  stroke  moveto
  hpt2 neg 0 rmoveto  hpt2 vpt2 rlineto stroke  } def
/T { stroke [] 0 setdash  2 copy  vpt 1.12 mul add moveto
  hpt neg vpt -1.62 mul rlineto
  hpt 2 mul 0 rlineto
  hpt neg vpt 1.62 mul rlineto  closepath  stroke
  P  } def
/S { 2 copy A C} def
end
%%EndProlog
%%Page: 1 1
gnudict begin
gsave
50 50 translate
0.100 0.100 scale
0 setgray
/Helvetica findfont 120 scalefont setfont
newpath
LTa
864 421 M
3393 421 L
864 421 M
864 2219 L
LTb
864 421 M
864 358 L
864 301 M
(0) Cshow
1180 421 M
1180 358 L
1180 301 M
(5) Cshow
1496 421 M
1496 358 L
1496 301 M
(10) Cshow
1812 421 M
1812 358 L
1812 301 M
(15) Cshow
2129 421 M
2129 358 L
2129 301 M
(20) Cshow
2445 421 M
2445 358 L
2445 301 M
(25) Cshow
2761 421 M
2761 358 L
2761 301 M
(30) Cshow
3077 421 M
3077 358 L
3077 301 M
(35) Cshow
3393 421 M
3393 358 L
3393 301 M
(40) Cshow
LTb
864 421 M
3393 421 L
3393 2219 L
864 2219 L
864 421 L
LT0
LT0
864 421 M
864 421 L
877 421 L
889 421 L
902 423 L
915 426 L
927 433 L
940 444 L
953 459 L
965 480 L
978 506 L
990 539 L
1003 577 L
1016 621 L
1028 670 L
1041 724 L
1054 782 L
1066 844 L
1079 909 L
1092 976 L
1104 1044 L
1117 1113 L
1130 1182 L
1142 1251 L
1155 1318 L
1167 1383 L
1180 1446 L
1193 1506 L
1205 1563 L
1218 1616 L
1231 1665 L
1243 1710 L
1256 1751 L
1269 1787 L
1281 1819 L
1294 1847 L
1307 1869 L
1319 1888 L
1332 1902 L
1345 1912 L
1357 1918 L
1370 1920 L
1382 1918 L
1395 1913 L
1408 1904 L
1420 1892 L
1433 1877 L
1446 1860 L
1458 1840 L
1471 1817 L
1484 1793 L
1496 1767 L
1509 1739 L
1522 1710 L
1534 1680 L
1547 1649 L
1559 1616 L
1572 1583 L
1585 1550 L
1597 1516 L
1610 1482 L
1623 1448 L
1635 1414 L
1648 1380 L
1661 1346 L
1673 1312 L
1686 1279 L
1699 1246 L
1711 1214 L
1724 1182 L
1737 1151 L
1749 1121 L
1762 1091 L
1774 1062 L
1787 1034 L
1800 1007 L
1812 980 L
1825 955 L
1838 930 L
1850 906 L
1863 883 L
1876 860 L
1888 839 L
1901 818 L
1914 798 L
1926 779 L
1939 761 L
1951 743 L
1964 726 L
1977 710 L
1989 695 L
2002 680 L
2015 666 L
2027 652 L
2040 640 L
2053 627 L
2065 616 L
2078 605 L
2091 594 L
2103 584 L
2116 575 L
2129 566 L
2141 558 L
2154 550 L
2166 542 L
2179 535 L
2192 528 L
2204 522 L
2217 515 L
2230 510 L
2242 504 L
2255 499 L
2268 494 L
2280 490 L
2293 485 L
2306 481 L
2318 478 L
2331 474 L
2343 471 L
2356 468 L
2369 465 L
2381 462 L
2394 459 L
2407 457 L
2419 454 L
2432 452 L
2445 450 L
2457 448 L
2470 446 L
2483 445 L
2495 443 L
2508 442 L
2520 440 L
2533 439 L
2546 438 L
2558 437 L
2571 436 L
2584 435 L
2596 434 L
2609 433 L
2622 432 L
2634 431 L
2647 431 L
2660 430 L
2672 429 L
2685 429 L
2698 428 L
2710 428 L
2723 427 L
2735 427 L
2748 426 L
2761 426 L
2773 426 L
2786 425 L
2799 425 L
2811 425 L
2824 424 L
2837 424 L
2849 424 L
2862 424 L
2875 424 L
2887 423 L
2900 423 L
2912 423 L
2925 423 L
2938 423 L
2950 423 L
2963 422 L
2976 422 L
2988 422 L
3001 422 L
3014 422 L
3026 422 L
3039 422 L
3052 422 L
3064 422 L
3077 422 L
3090 422 L
3102 422 L
3115 422 L
3127 422 L
stroke
grestore
end
showpage
%%Trailer
%%Pages: 1
