%!PS-Adobe-2.0
%%Creator: gnuplot
%%DocumentFonts: Helvetica
%%BoundingBox: 50 50 338 252
%%Pages: (atend)
%%EndComments
/gnudict 40 dict def
gnudict begin
/Color false def
/gnulinewidth 5.000 def
/vshift -33 def
/dl {10 mul} def
/hpt 31.5 def
/vpt 31.5 def
/vpt2 vpt 2 mul def
/hpt2 hpt 2 mul def
/Lshow { currentpoint stroke moveto
  0 vshift rmoveto show } def
/Rshow { currentpoint stroke moveto
  dup stringwidth pop neg vshift rmoveto show } def
/Cshow { currentpoint stroke moveto
  dup stringwidth pop -2 div vshift rmoveto show } def
/DL { Color {setrgbcolor [] 0 setdash pop}
 {pop pop pop 0 setdash} ifelse } def
/BL { stroke gnulinewidth 2 mul setlinewidth } def
/AL { stroke gnulinewidth 2 div setlinewidth } def
/PL { stroke gnulinewidth setlinewidth } def
/LTb { BL [] 0 0 0 DL } def
/LTa { AL [1 dl 2 dl] 0 setdash 0 0 0 setrgbcolor } def
/LT0 { PL [] 0 1 0 DL } def
/LT1 { PL [4 dl 2 dl] 0 0 1 DL } def
/LT2 { PL [2 dl 3 dl] 1 0 0 DL } def
/LT3 { PL [1 dl 1.5 dl] 1 0 1 DL } def
/LT4 { PL [5 dl 2 dl 1 dl 2 dl] 0 1 1 DL } def
/LT5 { PL [4 dl 3 dl 1 dl 3 dl] 1 1 0 DL } def
/LT6 { PL [2 dl 2 dl 2 dl 4 dl] 0 0 0 DL } def
/LT7 { PL [2 dl 2 dl 2 dl 2 dl 2 dl 4 dl] 1 0.3 0 DL } def
/LT8 { PL [2 dl 2 dl 2 dl 2 dl 2 dl 2 dl 2 dl 4 dl] 0.5 0.5 0.5 DL } def
/M {moveto} def
/L {lineto} def
/P { stroke [] 0 setdash
  currentlinewidth 2 div sub moveto
  0 currentlinewidth rlineto  stroke } def
/D { stroke [] 0 setdash  2 copy  vpt add moveto
  hpt neg vpt neg rlineto  hpt vpt neg rlineto
  hpt vpt rlineto  hpt neg vpt rlineto  closepath  stroke
  P  } def
/A { stroke [] 0 setdash  vpt sub moveto  0 vpt2 rlineto
  currentpoint stroke moveto
  hpt neg vpt neg rmoveto  hpt2 0 rlineto stroke
  } def
/B { stroke [] 0 setdash  2 copy  exch hpt sub exch vpt add moveto
  0 vpt2 neg rlineto  hpt2 0 rlineto  0 vpt2 rlineto
  hpt2 neg 0 rlineto  closepath  stroke
  P  } def
/C { stroke [] 0 setdash  exch hpt sub exch vpt add moveto
  hpt2 vpt2 neg rlineto  currentpoint  stroke  moveto
  hpt2 neg 0 rmoveto  hpt2 vpt2 rlineto stroke  } def
/T { stroke [] 0 setdash  2 copy  vpt 1.12 mul add moveto
  hpt neg vpt -1.62 mul rlineto
  hpt 2 mul 0 rlineto
  hpt neg vpt 1.62 mul rlineto  closepath  stroke
  P  } def
/S { 2 copy A C} def
end
%%EndProlog
%%Page: 1 1
gnudict begin
gsave
50 50 translate
0.100 0.100 scale
0 setgray
/Helvetica findfont 100 scalefont setfont
newpath
LTa
720 351 M
720 1765 L
LTb
720 351 M
783 351 L
2697 351 M
2634 351 L
660 351 M
(10) Rshow
720 528 M
783 528 L
2697 528 M
2634 528 L
660 528 M
(20) Rshow
720 705 M
783 705 L
2697 705 M
2634 705 L
660 705 M
(30) Rshow
720 881 M
783 881 L
2697 881 M
2634 881 L
660 881 M
(40) Rshow
720 1058 M
783 1058 L
2697 1058 M
2634 1058 L
660 1058 M
(50) Rshow
720 1235 M
783 1235 L
2697 1235 M
2634 1235 L
660 1235 M
(60) Rshow
720 1412 M
783 1412 L
2697 1412 M
2634 1412 L
660 1412 M
(70) Rshow
720 1588 M
783 1588 L
2697 1588 M
2634 1588 L
660 1588 M
(80) Rshow
720 1765 M
783 1765 L
2697 1765 M
2634 1765 L
660 1765 M
(90) Rshow
720 351 M
720 414 L
720 1765 M
720 1702 L
720 251 M
(0) Cshow
1115 351 M
1115 414 L
1115 1765 M
1115 1702 L
1115 251 M
(2) Cshow
1511 351 M
1511 414 L
1511 1765 M
1511 1702 L
1511 251 M
(4) Cshow
1906 351 M
1906 414 L
1906 1765 M
1906 1702 L
1906 251 M
(6) Cshow
2302 351 M
2302 414 L
2302 1765 M
2302 1702 L
2302 251 M
(8) Cshow
2697 351 M
2697 414 L
2697 1765 M
2697 1702 L
2697 251 M
(10) Cshow
LTb
720 351 M
2697 351 L
2697 1765 L
720 1765 L
720 351 L
400 1058 M
currentpoint gsave translate 90 rotate 0 0 moveto
(Loss) Cshow
grestore
1708 151 M
(Value of Underlying Constant \(mu\)) Cshow
LT0
LT0
918 1624 M
918 1624 L
957 1513 L
997 1409 L
1036 1310 L
1076 1216 L
1115 1129 L
1155 1047 L
1194 970 L
1234 900 L
1274 835 L
1313 775 L
1353 721 L
1392 673 L
1432 631 L
1471 594 L
1511 563 L
1550 538 L
1590 518 L
1629 504 L
1669 495 L
1709 492 L
1748 495 L
1788 504 L
1827 518 L
1867 538 L
1906 563 L
1946 594 L
1985 631 L
2025 673 L
2064 721 L
2104 775 L
2143 835 L
2183 900 L
2223 970 L
2262 1047 L
2302 1129 L
2341 1216 L
2381 1310 L
2420 1409 L
2460 1513 L
2499 1624 L
stroke
grestore
end
showpage
%%Trailer
%%Pages: 1
