%!PS-Adobe-2.0
%%Creator: gnuplot
%%DocumentFonts: Helvetica
%%BoundingBox: 50 50 338 252
%%Pages: (atend)
%%EndComments
/gnudict 40 dict def
gnudict begin
/Color false def
/gnulinewidth 5.000 def
/vshift -33 def
/dl {10 mul} def
/hpt 31.5 def
/vpt 31.5 def
/vpt2 vpt 2 mul def
/hpt2 hpt 2 mul def
/Lshow { currentpoint stroke moveto
  0 vshift rmoveto show } def
/Rshow { currentpoint stroke moveto
  dup stringwidth pop neg vshift rmoveto show } def
/Cshow { currentpoint stroke moveto
  dup stringwidth pop -2 div vshift rmoveto show } def
/DL { Color {setrgbcolor [] 0 setdash pop}
 {pop pop pop 0 setdash} ifelse } def
/BL { stroke gnulinewidth 2 mul setlinewidth } def
/AL { stroke gnulinewidth 2 div setlinewidth } def
/PL { stroke gnulinewidth setlinewidth } def
/LTb { BL [] 0 0 0 DL } def
/LTa { AL [1 dl 2 dl] 0 setdash 0 0 0 setrgbcolor } def
/LT0 { PL [] 0 1 0 DL } def
/LT1 { PL [4 dl 2 dl] 0 0 1 DL } def
/LT2 { PL [2 dl 3 dl] 1 0 0 DL } def
/LT3 { PL [1 dl 1.5 dl] 1 0 1 DL } def
/LT4 { PL [5 dl 2 dl 1 dl 2 dl] 0 1 1 DL } def
/LT5 { PL [4 dl 3 dl 1 dl 3 dl] 1 1 0 DL } def
/LT6 { PL [2 dl 2 dl 2 dl 4 dl] 0 0 0 DL } def
/LT7 { PL [2 dl 2 dl 2 dl 2 dl 2 dl 4 dl] 1 0.3 0 DL } def
/LT8 { PL [2 dl 2 dl 2 dl 2 dl 2 dl 2 dl 2 dl 4 dl] 0.5 0.5 0.5 DL } def
/M {moveto} def
/L {lineto} def
/P { stroke [] 0 setdash
  currentlinewidth 2 div sub moveto
  0 currentlinewidth rlineto  stroke } def
/D { stroke [] 0 setdash  2 copy  vpt add moveto
  hpt neg vpt neg rlineto  hpt vpt neg rlineto
  hpt vpt rlineto  hpt neg vpt rlineto  closepath  stroke
  P  } def
/A { stroke [] 0 setdash  vpt sub moveto  0 vpt2 rlineto
  currentpoint stroke moveto
  hpt neg vpt neg rmoveto  hpt2 0 rlineto stroke
  } def
/B { stroke [] 0 setdash  2 copy  exch hpt sub exch vpt add moveto
  0 vpt2 neg rlineto  hpt2 0 rlineto  0 vpt2 rlineto
  hpt2 neg 0 rlineto  closepath  stroke
  P  } def
/C { stroke [] 0 setdash  exch hpt sub exch vpt add moveto
  hpt2 vpt2 neg rlineto  currentpoint  stroke  moveto
  hpt2 neg 0 rmoveto  hpt2 vpt2 rlineto stroke  } def
/T { stroke [] 0 setdash  2 copy  vpt 1.12 mul add moveto
  hpt neg vpt -1.62 mul rlineto
  hpt 2 mul 0 rlineto
  hpt neg vpt 1.62 mul rlineto  closepath  stroke
  P  } def
/S { 2 copy A C} def
end
%%EndProlog
%%Page: 1 1
gnudict begin
gsave
50 50 translate
0.100 0.100 scale
0 setgray
/Helvetica findfont 100 scalefont setfont
newpath
LTa
LTb
720 351 M
720 288 L
720 251 M
(-6) Cshow
1050 351 M
1050 288 L
1050 251 M
(-4) Cshow
1379 351 M
1379 288 L
1379 251 M
(-2) Cshow
1709 351 M
1709 288 L
1709 251 M
(0) Cshow
2038 351 M
2038 288 L
2038 251 M
(2) Cshow
2368 351 M
2368 288 L
2368 251 M
(4) Cshow
2697 351 M
2697 288 L
2697 251 M
(6) Cshow
LTb
720 351 M
2697 351 L
2697 1765 L
720 1765 L
720 351 L
LT0
LT0
720 386 M
720 386 L
723 386 L
727 386 L
730 386 L
733 387 L
736 387 L
740 387 L
743 387 L
746 388 L
750 388 L
753 388 L
756 388 L
760 389 L
763 389 L
766 389 L
769 389 L
773 390 L
776 390 L
779 390 L
783 390 L
786 391 L
789 391 L
792 391 L
796 392 L
799 392 L
802 392 L
806 392 L
809 393 L
812 393 L
816 393 L
819 394 L
822 394 L
825 394 L
829 395 L
832 395 L
835 395 L
839 396 L
842 396 L
845 396 L
849 397 L
852 397 L
855 397 L
858 398 L
862 398 L
865 398 L
868 399 L
872 399 L
875 399 L
878 400 L
881 400 L
885 400 L
888 401 L
891 401 L
895 402 L
898 402 L
901 402 L
905 403 L
908 403 L
911 404 L
914 404 L
918 404 L
921 405 L
924 405 L
928 406 L
931 406 L
934 407 L
937 407 L
941 408 L
944 408 L
947 409 L
951 409 L
954 409 L
957 410 L
961 410 L
964 411 L
967 411 L
970 412 L
974 413 L
977 413 L
980 414 L
984 414 L
987 415 L
990 415 L
993 416 L
997 416 L
1000 417 L
1003 418 L
1007 418 L
1010 419 L
1013 419 L
1017 420 L
1020 421 L
1023 421 L
1026 422 L
1030 423 L
1033 423 L
1036 424 L
1040 425 L
1043 425 L
1046 426 L
1049 427 L
1053 427 L
1056 428 L
1059 429 L
1063 430 L
1066 430 L
1069 431 L
1073 432 L
1076 433 L
1079 433 L
1082 434 L
1086 435 L
1089 436 L
1092 437 L
1096 438 L
1099 439 L
1102 439 L
1106 440 L
1109 441 L
1112 442 L
1115 443 L
1119 444 L
1122 445 L
1125 446 L
1129 447 L
1132 448 L
1135 449 L
1138 450 L
1142 451 L
1145 452 L
1148 453 L
1152 454 L
1155 456 L
1158 457 L
1162 458 L
1165 459 L
1168 460 L
1171 462 L
1175 463 L
1178 464 L
1181 465 L
1185 467 L
1188 468 L
1191 469 L
1194 471 L
1198 472 L
1201 474 L
1204 475 L
1208 477 L
1211 478 L
1214 480 L
1218 481 L
1221 483 L
1224 484 L
1227 486 L
1231 488 L
1234 489 L
1237 491 L
1241 493 L
1244 495 L
1247 496 L
1250 498 L
1254 500 L
1257 502 L
1260 504 L
1264 506 L
1267 508 L
1270 510 L
1274 512 L
1277 514 L
1280 517 L
1283 519 L
1287 521 L
1290 524 L
1293 526 L
1297 528 L
1300 531 L
1303 533 L
1307 536 L
1310 538 L
1313 541 L
1316 544 L
1320 547 L
1323 550 L
1326 552 L
1330 555 L
1333 558 L
1336 561 L
1339 565 L
1343 568 L
1346 571 L
1349 574 L
1353 578 L
1356 581 L
1359 585 L
1363 589 L
1366 592 L
1369 596 L
1372 600 L
1376 604 L
1379 608 L
1382 612 L
1386 617 L
1389 621 L
1392 625 L
1395 630 L
1399 634 L
1402 639 L
1405 644 L
1409 649 L
1412 654 L
1415 659 L
1419 665 L
1422 670 L
1425 676 L
1428 681 L
1432 687 L
1435 693 L
1438 699 L
1442 706 L
1445 712 L
1448 719 L
1451 725 L
1455 732 L
1458 739 L
1461 747 L
1465 754 L
1468 761 L
1471 769 L
1475 777 L
1478 785 L
1481 794 L
1484 802 L
1488 811 L
1491 820 L
1494 829 L
1498 838 L
1501 848 L
1504 858 L
1508 868 L
1511 878 L
1514 888 L
1517 899 L
1521 910 L
1524 921 L
1527 933 L
1531 944 L
1534 956 L
1537 969 L
1540 981 L
1544 994 L
1547 1007 L
1550 1020 L
1554 1033 L
1557 1047 L
1560 1061 L
1564 1075 L
1567 1090 L
1570 1105 L
1573 1120 L
1577 1135 L
1580 1150 L
1583 1166 L
1587 1182 L
1590 1198 L
1593 1214 L
1596 1230 L
1600 1246 L
1603 1263 L
1606 1280 L
1610 1296 L
1613 1313 L
1616 1330 L
1620 1346 L
1623 1363 L
1626 1379 L
1629 1396 L
1633 1412 L
1636 1428 L
1639 1444 L
1643 1459 L
1646 1474 L
1649 1489 L
1652 1503 L
1656 1517 L
1659 1530 L
1662 1543 L
1666 1555 L
1669 1566 L
1672 1577 L
1676 1587 L
1679 1596 L
1682 1604 L
1685 1612 L
1689 1618 L
1692 1624 L
1695 1628 L
1699 1632 L
1702 1634 L
1705 1636 L
1708 1636 L
1712 1636 L
1715 1634 L
1718 1632 L
1722 1628 L
1725 1624 L
1728 1618 L
1732 1612 L
1735 1604 L
1738 1596 L
1741 1587 L
1745 1577 L
1748 1566 L
1751 1555 L
1755 1543 L
1758 1530 L
1761 1517 L
1765 1503 L
1768 1489 L
1771 1474 L
1774 1459 L
1778 1444 L
1781 1428 L
1784 1412 L
1788 1396 L
1791 1379 L
1794 1363 L
1797 1346 L
1801 1330 L
1804 1313 L
1807 1296 L
1811 1280 L
1814 1263 L
1817 1246 L
1821 1230 L
1824 1214 L
1827 1198 L
1830 1182 L
1834 1166 L
1837 1150 L
1840 1135 L
1844 1120 L
1847 1105 L
1850 1090 L
1853 1075 L
1857 1061 L
1860 1047 L
1863 1033 L
1867 1020 L
1870 1007 L
1873 994 L
1877 981 L
1880 969 L
1883 956 L
1886 944 L
1890 933 L
1893 921 L
1896 910 L
1900 899 L
1903 888 L
1906 878 L
1909 868 L
1913 858 L
1916 848 L
1919 838 L
1923 829 L
1926 820 L
1929 811 L
1933 802 L
1936 794 L
1939 785 L
1942 777 L
1946 769 L
1949 761 L
1952 754 L
1956 747 L
1959 739 L
1962 732 L
1966 725 L
1969 719 L
1972 712 L
1975 706 L
1979 699 L
1982 693 L
1985 687 L
1989 681 L
1992 676 L
1995 670 L
1998 665 L
2002 659 L
2005 654 L
2008 649 L
2012 644 L
2015 639 L
2018 634 L
2022 630 L
2025 625 L
2028 621 L
2031 617 L
currentpoint stroke moveto
2035 612 L
2038 608 L
2041 604 L
2045 600 L
2048 596 L
2051 592 L
2054 589 L
2058 585 L
2061 581 L
2064 578 L
2068 574 L
2071 571 L
2074 568 L
2078 565 L
2081 561 L
2084 558 L
2087 555 L
2091 552 L
2094 550 L
2097 547 L
2101 544 L
2104 541 L
2107 538 L
2110 536 L
2114 533 L
2117 531 L
2120 528 L
2124 526 L
2127 524 L
2130 521 L
2134 519 L
2137 517 L
2140 514 L
2143 512 L
2147 510 L
2150 508 L
2153 506 L
2157 504 L
2160 502 L
2163 500 L
2167 498 L
2170 496 L
2173 495 L
2176 493 L
2180 491 L
2183 489 L
2186 488 L
2190 486 L
2193 484 L
2196 483 L
2199 481 L
2203 480 L
2206 478 L
2209 477 L
2213 475 L
2216 474 L
2219 472 L
2223 471 L
2226 469 L
2229 468 L
2232 467 L
2236 465 L
2239 464 L
2242 463 L
2246 462 L
2249 460 L
2252 459 L
2255 458 L
2259 457 L
2262 456 L
2265 454 L
2269 453 L
2272 452 L
2275 451 L
2279 450 L
2282 449 L
2285 448 L
2288 447 L
2292 446 L
2295 445 L
2298 444 L
2302 443 L
2305 442 L
2308 441 L
2311 440 L
2315 439 L
2318 439 L
2321 438 L
2325 437 L
2328 436 L
2331 435 L
2335 434 L
2338 433 L
2341 433 L
2344 432 L
2348 431 L
2351 430 L
2354 430 L
2358 429 L
2361 428 L
2364 427 L
2367 427 L
2371 426 L
2374 425 L
2377 425 L
2381 424 L
2384 423 L
2387 423 L
2391 422 L
2394 421 L
2397 421 L
2400 420 L
2404 419 L
2407 419 L
2410 418 L
2414 418 L
2417 417 L
2420 416 L
2424 416 L
2427 415 L
2430 415 L
2433 414 L
2437 414 L
2440 413 L
2443 413 L
2447 412 L
2450 411 L
2453 411 L
2456 410 L
2460 410 L
2463 409 L
2466 409 L
2470 409 L
2473 408 L
2476 408 L
2480 407 L
2483 407 L
2486 406 L
2489 406 L
2493 405 L
2496 405 L
2499 404 L
2503 404 L
2506 404 L
2509 403 L
2512 403 L
2516 402 L
2519 402 L
2522 402 L
2526 401 L
2529 401 L
2532 400 L
2536 400 L
2539 400 L
2542 399 L
2545 399 L
2549 399 L
2552 398 L
2555 398 L
2559 398 L
2562 397 L
2565 397 L
2568 397 L
2572 396 L
2575 396 L
2578 396 L
2582 395 L
2585 395 L
2588 395 L
2592 394 L
2595 394 L
2598 394 L
2601 393 L
2605 393 L
2608 393 L
2611 392 L
2615 392 L
2618 392 L
2621 392 L
2625 391 L
2628 391 L
2631 391 L
2634 390 L
2638 390 L
2641 390 L
2644 390 L
2648 389 L
2651 389 L
2654 389 L
2657 389 L
2661 388 L
2664 388 L
2667 388 L
2671 388 L
2674 387 L
2677 387 L
2681 387 L
2684 387 L
2687 386 L
2690 386 L
2694 386 L
2697 386 L
stroke
grestore
end
showpage
%%Trailer
%%Pages: 1
