%!PS-Adobe-2.0
%%Creator: gnuplot
%%DocumentFonts: Helvetica
%%BoundingBox: 50 50 338 252
%%Pages: (atend)
%%EndComments
/gnudict 40 dict def
gnudict begin
/Color false def
/gnulinewidth 5.000 def
/vshift -33 def
/dl {10 mul} def
/hpt 31.5 def
/vpt 31.5 def
/vpt2 vpt 2 mul def
/hpt2 hpt 2 mul def
/Lshow { currentpoint stroke moveto
  0 vshift rmoveto show } def
/Rshow { currentpoint stroke moveto
  dup stringwidth pop neg vshift rmoveto show } def
/Cshow { currentpoint stroke moveto
  dup stringwidth pop -2 div vshift rmoveto show } def
/DL { Color {setrgbcolor [] 0 setdash pop}
 {pop pop pop 0 setdash} ifelse } def
/BL { stroke gnulinewidth 2 mul setlinewidth } def
/AL { stroke gnulinewidth 2 div setlinewidth } def
/PL { stroke gnulinewidth setlinewidth } def
/LTb { BL [] 0 0 0 DL } def
/LTa { AL [1 dl 2 dl] 0 setdash 0 0 0 setrgbcolor } def
/LT0 { PL [] 0 1 0 DL } def
/LT1 { PL [4 dl 2 dl] 0 0 1 DL } def
/LT2 { PL [2 dl 3 dl] 1 0 0 DL } def
/LT3 { PL [1 dl 1.5 dl] 1 0 1 DL } def
/LT4 { PL [5 dl 2 dl 1 dl 2 dl] 0 1 1 DL } def
/LT5 { PL [4 dl 3 dl 1 dl 3 dl] 1 1 0 DL } def
/LT6 { PL [2 dl 2 dl 2 dl 4 dl] 0 0 0 DL } def
/LT7 { PL [2 dl 2 dl 2 dl 2 dl 2 dl 4 dl] 1 0.3 0 DL } def
/LT8 { PL [2 dl 2 dl 2 dl 2 dl 2 dl 2 dl 2 dl 4 dl] 0.5 0.5 0.5 DL } def
/M {moveto} def
/L {lineto} def
/P { stroke [] 0 setdash
  currentlinewidth 2 div sub moveto
  0 currentlinewidth rlineto  stroke } def
/D { stroke [] 0 setdash  2 copy  vpt add moveto
  hpt neg vpt neg rlineto  hpt vpt neg rlineto
  hpt vpt rlineto  hpt neg vpt rlineto  closepath  stroke
  P  } def
/A { stroke [] 0 setdash  vpt sub moveto  0 vpt2 rlineto
  currentpoint stroke moveto
  hpt neg vpt neg rmoveto  hpt2 0 rlineto stroke
  } def
/B { stroke [] 0 setdash  2 copy  exch hpt sub exch vpt add moveto
  0 vpt2 neg rlineto  hpt2 0 rlineto  0 vpt2 rlineto
  hpt2 neg 0 rlineto  closepath  stroke
  P  } def
/C { stroke [] 0 setdash  exch hpt sub exch vpt add moveto
  hpt2 vpt2 neg rlineto  currentpoint  stroke  moveto
  hpt2 neg 0 rmoveto  hpt2 vpt2 rlineto stroke  } def
/T { stroke [] 0 setdash  2 copy  vpt 1.12 mul add moveto
  hpt neg vpt -1.62 mul rlineto
  hpt 2 mul 0 rlineto
  hpt neg vpt 1.62 mul rlineto  closepath  stroke
  P  } def
/S { 2 copy A C} def
end
%%EndProlog
%%Page: 1 1
gnudict begin
gsave
50 50 translate
0.100 0.100 scale
0 setgray
/Helvetica findfont 100 scalefont setfont
newpath
LTa
LTb
720 351 M
720 288 L
720 251 M
(-3) Cshow
1050 351 M
1050 288 L
1050 251 M
(-2) Cshow
1379 351 M
1379 288 L
1379 251 M
(-1) Cshow
1709 351 M
1709 288 L
1709 251 M
(0) Cshow
2038 351 M
2038 288 L
2038 251 M
(1) Cshow
2368 351 M
2368 288 L
2368 251 M
(2) Cshow
2697 351 M
2697 288 L
2697 251 M
(3) Cshow
LTb
720 351 M
2697 351 L
2697 1765 L
720 1765 L
720 351 L
LT0
LT0
720 351 M
720 351 L
736 351 L
753 351 L
769 351 L
786 351 L
802 352 L
819 354 L
835 357 L
852 364 L
868 377 L
885 401 L
901 442 L
918 506 L
934 599 L
951 723 L
967 876 L
984 1047 L
1000 1217 L
1017 1363 L
1033 1463 L
1049 1498 L
1066 1463 L
1082 1363 L
1099 1217 L
1115 1047 L
1132 876 L
1148 723 L
1165 599 L
1181 506 L
1198 442 L
1214 401 L
1231 377 L
1247 364 L
1264 357 L
1280 354 L
1297 352 L
1313 351 L
1330 351 L
1346 351 L
1363 351 L
1379 351 L
1050 351 M
1050 351 L
1066 351 L
1082 351 L
1099 351 L
1115 351 L
1132 351 L
1148 351 L
1165 351 L
1181 351 L
1198 351 L
1214 351 L
1231 351 L
1247 352 L
1264 352 L
1280 352 L
1297 353 L
1313 353 L
1330 354 L
1346 355 L
1363 357 L
1379 359 L
1395 362 L
1412 365 L
1428 370 L
1445 376 L
1461 383 L
1478 392 L
1494 403 L
1511 415 L
1527 431 L
1544 449 L
1560 470 L
1577 495 L
1593 522 L
1610 553 L
1626 586 L
1643 623 L
1659 663 L
1676 704 L
1692 747 L
1708 791 L
1725 835 L
1741 878 L
1758 919 L
1774 957 L
1791 991 L
1807 1021 L
1824 1044 L
1840 1062 L
1857 1073 L
1873 1076 L
1890 1073 L
1906 1062 L
1923 1044 L
1939 1021 L
1956 991 L
1972 957 L
1989 919 L
2005 878 L
2022 835 L
2038 791 L
2054 747 L
2071 704 L
2087 663 L
2104 623 L
2120 586 L
2137 553 L
2153 522 L
2170 495 L
2186 470 L
2203 449 L
2219 431 L
2236 415 L
2252 403 L
2269 392 L
2285 383 L
2302 376 L
2318 370 L
2335 365 L
2351 362 L
2367 359 L
2384 357 L
2400 355 L
2417 354 L
2433 353 L
2450 353 L
2466 352 L
2483 352 L
2499 352 L
2516 351 L
2532 351 L
stroke
grestore
end
showpage

