-6.000000 0.027027
-5.980000 0.027203
-5.960000 0.027381
-5.940000 0.027561
-5.920000 0.027742
-5.900000 0.027925
-5.880000 0.028110
-5.860000 0.028297
-5.840000 0.028485
-5.820000 0.028676
-5.800000 0.028868
-5.780000 0.029063
-5.760000 0.029259
-5.740000 0.029457
-5.720000 0.029657
-5.700000 0.029860
-5.680000 0.030064
-5.660000 0.030270
-5.640000 0.030479
-5.620000 0.030690
-5.600000 0.030902
-5.580000 0.031117
-5.560000 0.031335
-5.540000 0.031554
-5.520000 0.031776
-5.500000 0.032000
-5.480000 0.032226
-5.460001 0.032455
-5.440001 0.032687
-5.420001 0.032920
-5.400001 0.033156
-5.380001 0.033395
-5.360001 0.033637
-5.340001 0.033880
-5.320001 0.034127
-5.300001 0.034376
-5.280001 0.034628
-5.260001 0.034883
-5.240001 0.035140
-5.220001 0.035400
-5.200001 0.035663
-5.180001 0.035929
-5.160001 0.036198
-5.140001 0.036470
-5.120001 0.036745
-5.100001 0.037023
-5.080001 0.037305
-5.060001 0.037589
-5.040001 0.037876
-5.020001 0.038167
-5.000001 0.038462
-4.980001 0.038759
-4.960001 0.039060
-4.940001 0.039364
-4.920001 0.039672
-4.900001 0.039984
-4.880001 0.040299
-4.860001 0.040618
-4.840001 0.040941
-4.820001 0.041267
-4.800001 0.041597
-4.780001 0.041932
-4.760001 0.042270
-4.740001 0.042612
-4.720001 0.042958
-4.700001 0.043309
-4.680001 0.043664
-4.660001 0.044023
-4.640001 0.044386
-4.620001 0.044754
-4.600001 0.045126
-4.580001 0.045503
-4.560001 0.045885
-4.540001 0.046271
-4.520001 0.046663
-4.500001 0.047059
-4.480001 0.047460
-4.460001 0.047866
-4.440001 0.048277
-4.420002 0.048694
-4.400002 0.049116
-4.380002 0.049543
-4.360002 0.049976
-4.340002 0.050414
-4.320002 0.050858
-4.300002 0.051308
-4.280002 0.051764
-4.260002 0.052226
-4.240002 0.052694
-4.220002 0.053168
-4.200002 0.053648
-4.180002 0.054135
-4.160002 0.054628
-4.140002 0.055128
-4.120002 0.055635
-4.100002 0.056148
-4.080002 0.056669
-4.060002 0.057196
-4.040002 0.057731
-4.020002 0.058274
-4.000002 0.058823
-3.980002 0.059381
-3.960002 0.059946
-3.940002 0.060519
-3.920002 0.061101
-3.900002 0.061690
-3.880002 0.062288
-3.860002 0.062895
-3.840002 0.063510
-3.820002 0.064134
-3.800002 0.064767
-3.780002 0.065409
-3.760002 0.066061
-3.740002 0.066722
-3.720002 0.067393
-3.700002 0.068073
-3.680002 0.068764
-3.660002 0.069466
-3.640002 0.070177
-3.620002 0.070900
-3.600002 0.071633
-3.580002 0.072378
-3.560002 0.073134
-3.540002 0.073901
-3.520002 0.074680
-3.500002 0.075472
-3.480002 0.076275
-3.460002 0.077091
-3.440002 0.077920
-3.420002 0.078762
-3.400002 0.079618
-3.380002 0.080487
-3.360003 0.081370
-3.340003 0.082266
-3.320003 0.083178
-3.300003 0.084104
-3.280003 0.085045
-3.260003 0.086002
-3.240003 0.086975
-3.220003 0.087963
-3.200003 0.088968
-3.180003 0.089989
-3.160003 0.091028
-3.140003 0.092084
-3.120003 0.093158
-3.100003 0.094251
-3.080003 0.095361
-3.060003 0.096491
-3.040003 0.097641
-3.020003 0.098810
-3.000003 0.100000
-2.980003 0.101210
-2.960003 0.102442
-2.940003 0.103696
-2.920003 0.104971
-2.900003 0.106270
-2.880003 0.107591
-2.860003 0.108937
-2.840003 0.110307
-2.820003 0.111702
-2.800003 0.113122
-2.780003 0.114568
-2.760003 0.116041
-2.740003 0.117542
-2.720003 0.119070
-2.700003 0.120627
-2.680003 0.122213
-2.660003 0.123830
-2.640003 0.125477
-2.620003 0.127155
-2.600003 0.128866
-2.580003 0.130609
-2.560003 0.132387
-2.540003 0.134199
-2.520003 0.136047
-2.500003 0.137931
-2.480003 0.139852
-2.460003 0.141811
-2.440003 0.143810
-2.420003 0.145849
-2.400003 0.147929
-2.380003 0.150051
-2.360003 0.152216
-2.340003 0.154425
-2.320004 0.156680
-2.300004 0.158982
-2.280004 0.161332
-2.260004 0.163730
-2.240004 0.166179
-2.220004 0.168679
-2.200004 0.171232
-2.180004 0.173840
-2.160004 0.176503
-2.140004 0.179224
-2.120004 0.182003
-2.100004 0.184842
-2.080004 0.187744
-2.060004 0.190708
-2.040004 0.193738
-2.020004 0.196834
-2.000004 0.199999
-1.980004 0.203235
-1.960004 0.206543
-1.940004 0.209925
-1.920004 0.213383
-1.900004 0.216919
-1.880004 0.220536
-1.860004 0.224235
-1.840004 0.228018
-1.820004 0.231889
-1.800004 0.235848
-1.780004 0.239899
-1.760004 0.244044
-1.740004 0.248286
-1.720004 0.252626
-1.700004 0.257068
-1.680004 0.261615
-1.660004 0.266268
-1.640004 0.271031
-1.620004 0.275907
-1.600004 0.280898
-1.580004 0.286007
-1.560004 0.291238
-1.540004 0.296594
-1.520004 0.302077
-1.500004 0.307691
-1.480004 0.313439
-1.460004 0.319324
-1.440004 0.325350
-1.420004 0.331520
-1.400004 0.337836
-1.380004 0.344304
-1.360004 0.350925
-1.340004 0.357703
-1.320004 0.364643
-1.300004 0.371746
-1.280005 0.379016
-1.260005 0.386457
-1.240005 0.394071
-1.220005 0.401863
-1.200005 0.409834
-1.180005 0.417988
-1.160005 0.426328
-1.140005 0.434856
-1.120005 0.443575
-1.100005 0.452487
-1.080005 0.461593
-1.060005 0.470896
-1.040005 0.480397
-1.020005 0.490098
-1.000005 0.499998
-0.980005 0.510098
-0.960005 0.520397
-0.940005 0.530896
-0.920005 0.541592
-0.900005 0.552483
-0.880005 0.563568
-0.860005 0.574842
-0.840005 0.586301
-0.820005 0.597940
-0.800005 0.609753
-0.780005 0.621733
-0.760005 0.633871
-0.740005 0.646159
-0.720005 0.658585
-0.700005 0.671138
-0.680005 0.683804
-0.660005 0.696570
-0.640005 0.709418
-0.620005 0.722331
-0.600005 0.735291
-0.580005 0.748276
-0.560005 0.761263
-0.540005 0.774230
-0.520005 0.787150
-0.500005 0.799997
-0.480005 0.812741
-0.460005 0.825352
-0.440005 0.837798
-0.420005 0.850048
-0.400005 0.862066
-0.380005 0.873817
-0.360005 0.885266
-0.340005 0.896376
-0.320005 0.907109
-0.300005 0.917429
-0.280005 0.927297
-0.260005 0.936678
-0.240005 0.945535
-0.220005 0.953832
-0.200005 0.961537
-0.180005 0.968615
-0.160005 0.975037
-0.140005 0.980775
-0.120005 0.985803
-0.100005 0.990098
-0.080005 0.993640
-0.060005 0.996412
-0.040005 0.998402
-0.020005 0.999600
-0.000005 1.000000
0.019995 0.999600
0.039995 0.998403
0.059995 0.996414
0.079995 0.993641
0.099995 0.990100
0.119995 0.985806
0.139995 0.980778
0.159995 0.975041
0.179995 0.968619
0.199995 0.961540
0.219995 0.953837
0.239995 0.945539
0.259995 0.936683
0.279995 0.927302
0.299995 0.917434
0.319995 0.907114
0.339995 0.896381
0.359995 0.885272
0.379995 0.873823
0.399995 0.862072
0.419995 0.850054
0.439995 0.837805
0.459995 0.825358
0.479995 0.812747
0.499995 0.800003
0.519995 0.787157
0.539995 0.774237
0.559995 0.761270
0.579995 0.748282
0.599995 0.735297
0.619995 0.722338
0.639995 0.709424
0.659995 0.696576
0.679995 0.683811
0.699995 0.671144
0.719995 0.658591
0.739995 0.646165
0.759995 0.633877
0.779995 0.621739
0.799995 0.609759
0.819995 0.597946
0.839995 0.586307
0.859995 0.574848
0.879995 0.563574
0.899995 0.552489
0.919995 0.541597
0.939995 0.530901
0.959995 0.520402
0.979995 0.510103
0.999995 0.500003
1.019994 0.490103
1.039994 0.480402
1.059994 0.470901
1.079994 0.461598
1.099994 0.452491
1.119994 0.443579
1.139994 0.434861
1.159994 0.426333
1.179994 0.417993
1.199994 0.409838
1.219994 0.401867
1.239994 0.394075
1.259994 0.386461
1.279994 0.379020
1.299994 0.371749
1.319994 0.364646
1.339994 0.357707
1.359994 0.350928
1.379994 0.344307
1.399994 0.337840
1.419994 0.331523
1.439994 0.325353
1.459994 0.319327
1.479994 0.313442
1.499994 0.307694
1.519994 0.302080
1.539994 0.296597
1.559994 0.291241
1.579994 0.286010
1.599994 0.280900
1.619994 0.275909
1.639994 0.271034
1.659994 0.266270
1.679994 0.261617
1.699994 0.257071
1.719994 0.252629
1.739994 0.248288
1.759994 0.244047
1.779994 0.239901
1.799994 0.235850
1.819994 0.231891
1.839994 0.228020
1.859994 0.224237
1.879994 0.220537
1.899994 0.216921
1.919994 0.213385
1.939994 0.209926
1.959994 0.206544
1.979994 0.203237
1.999994 0.200001
2.019994 0.196836
2.039994 0.193739
2.059994 0.190710
2.079993 0.187745
2.099993 0.184844
2.119993 0.182004
2.139993 0.179225
2.159993 0.176505
2.179993 0.173841
2.199993 0.171234
2.219993 0.168680
2.239993 0.166180
2.259993 0.163731
2.279993 0.161333
2.299993 0.158983
2.319993 0.156682
2.339993 0.154427
2.359993 0.152217
2.379993 0.150052
2.399993 0.147930
2.419993 0.145850
2.439993 0.143811
2.459993 0.141812
2.479993 0.139853
2.499993 0.137932
2.519993 0.136048
2.539993 0.134200
2.559993 0.132388
2.579993 0.130610
2.599993 0.128867
2.619993 0.127156
2.639993 0.125477
2.659993 0.123830
2.679993 0.122214
2.699993 0.120628
2.719993 0.119071
2.739993 0.117543
2.759993 0.116042
2.779993 0.114569
2.799993 0.113123
2.819993 0.111702
2.839993 0.110308
2.859993 0.108938
2.879993 0.107592
2.899993 0.106270
2.919993 0.104972
2.939993 0.103696
2.959993 0.102443
2.979993 0.101211
2.999993 0.100000
3.019993 0.098811
3.039993 0.097641
3.059993 0.096492
3.079993 0.095362
3.099993 0.094251
3.119992 0.093159
3.139992 0.092085
3.159992 0.091029
3.179992 0.089990
3.199992 0.088968
3.219992 0.087964
3.239992 0.086975
3.259992 0.086003
3.279992 0.085046
3.299992 0.084105
3.319992 0.083178
3.339992 0.082267
3.359992 0.081370
3.379992 0.080487
3.399992 0.079618
3.419992 0.078763
3.439992 0.077921
3.459992 0.077092
3.479992 0.076276
3.499992 0.075472
3.519992 0.074681
3.539992 0.073901
3.559992 0.073134
3.579992 0.072378
3.599992 0.071634
3.619992 0.070900
3.639992 0.070178
3.659992 0.069466
3.679992 0.068765
3.699992 0.068074
3.719992 0.067393
3.739992 0.066722
3.759992 0.066061
3.779992 0.065409
3.799992 0.064767
3.819992 0.064134
3.839992 0.063510
3.859992 0.062895
3.879992 0.062288
3.899992 0.061691
3.919992 0.061101
3.939992 0.060520
3.959992 0.059947
3.979992 0.059381
3.999992 0.058824
4.019992 0.058274
4.039992 0.057732
4.059992 0.057197
4.079992 0.056669
4.099992 0.056148
4.119992 0.055635
4.139992 0.055128
4.159992 0.054628
4.179992 0.054135
4.199992 0.053648
4.219992 0.053168
4.239992 0.052694
4.259992 0.052226
4.279992 0.051764
4.299992 0.051309
4.319992 0.050859
4.339992 0.050415
4.359992 0.049976
4.379992 0.049543
4.399992 0.049116
4.419991 0.048694
4.439991 0.048278
4.459991 0.047866
4.479991 0.047460
4.499991 0.047059
4.519991 0.046663
4.539991 0.046272
4.559991 0.045885
4.579991 0.045504
4.599991 0.045127
4.619991 0.044754
4.639991 0.044386
4.659991 0.044023
4.679991 0.043664
4.699991 0.043309
4.719991 0.042958
4.739991 0.042612
4.759991 0.042270
4.779991 0.041932
4.799991 0.041597
4.819991 0.041267
4.839991 0.040941
4.859991 0.040618
4.879991 0.040299
4.899991 0.039984
4.919991 0.039673
4.939991 0.039365
4.959991 0.039060
4.979991 0.038759
4.999991 0.038462
5.019991 0.038167
5.039991 0.037877
5.059991 0.037589
5.079991 0.037305
5.099991 0.037023
5.119991 0.036745
5.139991 0.036470
5.159991 0.036198
5.179991 0.035929
5.199991 0.035663
5.219991 0.035400
5.239991 0.035140
5.259991 0.034883
5.279991 0.034628
5.299991 0.034376
5.319991 0.034127
5.339991 0.033881
5.359991 0.033637
5.379991 0.033395
5.399991 0.033157
5.419991 0.032920
5.439991 0.032687
5.459991 0.032455
5.479990 0.032227
5.499990 0.032000
5.519990 0.031776
5.539990 0.031554
5.559990 0.031335
5.579990 0.031117
5.599990 0.030902
5.619990 0.030690
5.639990 0.030479
5.659990 0.030270
5.679990 0.030064
5.699990 0.029860
5.719990 0.029657
5.739990 0.029457
5.759990 0.029259
5.779990 0.029063
5.799990 0.028868
5.819990 0.028676
5.839990 0.028486
5.859990 0.028297
5.879990 0.028110
5.899990 0.027925
5.919990 0.027742
5.939990 0.027561
5.959990 0.027381
5.979990 0.027203
5.999990 0.027027
