%!PS-Adobe-2.0
%%Creator: gnuplot
%%DocumentFonts: Helvetica
%%BoundingBox: 50 50 374 277
%%Pages: (atend)
%%EndComments
/gnudict 40 dict def
gnudict begin
/Color false def
/gnulinewidth 5.000 def
/vshift -40 def
/dl {10 mul} def
/hpt 31.5 def
/vpt 31.5 def
/vpt2 vpt 2 mul def
/hpt2 hpt 2 mul def
/Lshow { currentpoint stroke moveto
  0 vshift rmoveto show } def
/Rshow { currentpoint stroke moveto
  dup stringwidth pop neg vshift rmoveto show } def
/Cshow { currentpoint stroke moveto
  dup stringwidth pop -2 div vshift rmoveto show } def
/DL { Color {setrgbcolor [] 0 setdash pop}
 {pop pop pop 0 setdash} ifelse } def
/BL { stroke gnulinewidth 2 mul setlinewidth } def
/AL { stroke gnulinewidth 2 div setlinewidth } def
/PL { stroke gnulinewidth setlinewidth } def
/LTb { BL [] 0 0 0 DL } def
/LTa { AL [1 dl 2 dl] 0 setdash 0 0 0 setrgbcolor } def
/LT0 { PL [] 0 1 0 DL } def
/LT1 { PL [4 dl 2 dl] 0 0 1 DL } def
/LT2 { PL [2 dl 3 dl] 1 0 0 DL } def
/LT3 { PL [1 dl 1.5 dl] 1 0 1 DL } def
/LT4 { PL [5 dl 2 dl 1 dl 2 dl] 0 1 1 DL } def
/LT5 { PL [4 dl 3 dl 1 dl 3 dl] 1 1 0 DL } def
/LT6 { PL [2 dl 2 dl 2 dl 4 dl] 0 0 0 DL } def
/LT7 { PL [2 dl 2 dl 2 dl 2 dl 2 dl 4 dl] 1 0.3 0 DL } def
/LT8 { PL [2 dl 2 dl 2 dl 2 dl 2 dl 2 dl 2 dl 4 dl] 0.5 0.5 0.5 DL } def
/M {moveto} def
/L {lineto} def
/P { stroke [] 0 setdash
  currentlinewidth 2 div sub moveto
  0 currentlinewidth rlineto  stroke } def
/D { stroke [] 0 setdash  2 copy  vpt add moveto
  hpt neg vpt neg rlineto  hpt vpt neg rlineto
  hpt vpt rlineto  hpt neg vpt rlineto  closepath  stroke
  P  } def
/A { stroke [] 0 setdash  vpt sub moveto  0 vpt2 rlineto
  currentpoint stroke moveto
  hpt neg vpt neg rmoveto  hpt2 0 rlineto stroke
  } def
/B { stroke [] 0 setdash  2 copy  exch hpt sub exch vpt add moveto
  0 vpt2 neg rlineto  hpt2 0 rlineto  0 vpt2 rlineto
  hpt2 neg 0 rlineto  closepath  stroke
  P  } def
/C { stroke [] 0 setdash  exch hpt sub exch vpt add moveto
  hpt2 vpt2 neg rlineto  currentpoint  stroke  moveto
  hpt2 neg 0 rmoveto  hpt2 vpt2 rlineto stroke  } def
/T { stroke [] 0 setdash  2 copy  vpt 1.12 mul add moveto
  hpt neg vpt -1.62 mul rlineto
  hpt 2 mul 0 rlineto
  hpt neg vpt 1.62 mul rlineto  closepath  stroke
  P  } def
/S { 2 copy A C} def
end
%%EndProlog
%%Page: 1 1
gnudict begin
gsave
50 50 translate
0.100 0.100 scale
0 setgray
/Helvetica findfont 120 scalefont setfont
newpath
LTa
LTb
864 421 M
864 358 L
864 301 M
(0) Cshow
1225 421 M
1225 358 L
1225 301 M
(1) Cshow
1587 421 M
1587 358 L
1587 301 M
(2) Cshow
1948 421 M
1948 358 L
1948 301 M
(3) Cshow
2309 421 M
2309 358 L
2309 301 M
(4) Cshow
2671 421 M
2671 358 L
2671 301 M
(5) Cshow
3032 421 M
3032 358 L
3032 301 M
(6) Cshow
LTb
864 421 M
3032 421 L
3032 1966 L
864 1966 L
864 421 L
LT0
LT0
868 421 M
868 421 L
875 421 L
882 440 L
889 470 L
897 520 L
904 588 L
911 668 L
918 755 L
925 854 L
933 952 L
940 1045 L
947 1138 L
954 1231 L
962 1311 L
969 1385 L
976 1447 L
983 1509 L
990 1558 L
998 1601 L
1005 1638 L
1012 1669 L
1019 1694 L
1027 1719 L
1034 1731 L
1041 1744 L
1048 1744 L
1056 1750 L
1063 1750 L
1070 1744 L
1077 1737 L
1084 1731 L
1092 1719 L
1099 1706 L
1106 1694 L
1113 1676 L
1121 1663 L
1128 1645 L
1135 1626 L
1142 1608 L
1149 1589 L
1157 1570 L
1164 1552 L
1171 1527 L
1178 1509 L
1186 1490 L
1193 1472 L
1200 1447 L
1207 1428 L
1214 1410 L
1222 1391 L
1229 1373 L
1236 1354 L
1243 1336 L
1251 1317 L
1258 1299 L
1265 1280 L
1272 1261 L
1280 1243 L
1287 1231 L
1294 1212 L
1301 1194 L
1308 1181 L
1316 1163 L
1323 1150 L
1330 1132 L
1337 1119 L
1345 1107 L
1352 1088 L
1359 1076 L
1366 1064 L
1373 1051 L
1381 1039 L
1388 1027 L
1395 1014 L
1402 1002 L
1410 990 L
1417 977 L
1424 965 L
1431 952 L
1439 946 L
1446 934 L
1453 922 L
1460 915 L
1467 903 L
1475 897 L
1482 885 L
1489 878 L
1496 866 L
1504 860 L
1511 854 L
1518 841 L
1525 835 L
1532 829 L
1540 823 L
1547 810 L
1554 804 L
1561 798 L
1569 792 L
1576 786 L
1583 779 L
1590 773 L
1598 767 L
1605 761 L
1612 755 L
1619 749 L
1626 742 L
1634 736 L
1641 730 L
1648 724 L
1655 718 L
1663 711 L
1670 711 L
1677 705 L
1684 699 L
1691 693 L
1699 687 L
1706 687 L
1713 681 L
1720 674 L
1728 674 L
1735 668 L
1742 662 L
1749 662 L
1756 656 L
1764 650 L
1771 650 L
1778 643 L
1785 643 L
1793 637 L
1800 637 L
1807 631 L
1814 625 L
1822 625 L
1829 619 L
1836 619 L
1843 613 L
1850 613 L
1858 606 L
1865 606 L
1872 606 L
1879 600 L
1887 600 L
1894 594 L
1901 594 L
1908 588 L
1915 588 L
1923 588 L
1930 582 L
1937 582 L
1944 575 L
1952 575 L
1959 575 L
1966 569 L
1973 569 L
1981 569 L
1988 563 L
1995 563 L
2002 563 L
2009 557 L
2017 557 L
2024 557 L
2031 551 L
2038 551 L
2046 551 L
2053 551 L
2060 545 L
2067 545 L
2074 545 L
2082 545 L
2089 538 L
2096 538 L
2103 538 L
2111 538 L
2118 532 L
2125 532 L
2132 532 L
2140 532 L
2147 526 L
2154 526 L
2161 526 L
2168 526 L
2176 520 L
2183 520 L
2190 520 L
2197 520 L
2205 520 L
2212 514 L
2219 514 L
2226 514 L
2233 514 L
2241 514 L
2248 514 L
2255 508 L
2262 508 L
2270 508 L
2277 508 L
2284 508 L
2291 508 L
2298 501 L
2306 501 L
2313 501 L
2320 501 L
2327 501 L
2335 501 L
2342 495 L
2349 495 L
2356 495 L
2364 495 L
2371 495 L
2378 495 L
2385 495 L
2392 495 L
2400 489 L
2407 489 L
2414 489 L
2421 489 L
2429 489 L
2436 489 L
2443 489 L
2450 489 L
2457 483 L
2465 483 L
2472 483 L
2479 483 L
2486 483 L
2494 483 L
2501 483 L
2508 483 L
2515 483 L
2523 477 L
2530 477 L
2537 477 L
2544 477 L
2551 477 L
2559 477 L
2566 477 L
2573 477 L
2580 477 L
2588 477 L
2595 477 L
2602 470 L
2609 470 L
2616 470 L
2624 470 L
2631 470 L
2638 470 L
2645 470 L
2653 470 L
2660 470 L
2667 470 L
2674 470 L
2682 470 L
2689 464 L
2696 464 L
2703 464 L
2710 464 L
2718 464 L
2725 464 L
2732 464 L
2739 464 L
2747 464 L
2754 464 L
2761 464 L
2768 464 L
2775 464 L
2783 464 L
2790 464 L
2797 458 L
2804 458 L
2812 458 L
2819 458 L
2826 458 L
2833 458 L
2840 458 L
2848 458 L
2855 458 L
2862 458 L
2869 458 L
2877 458 L
2884 458 L
2891 458 L
2898 458 L
2906 458 L
2913 458 L
2920 458 L
2927 452 L
2934 452 L
2942 452 L
2949 452 L
2956 452 L
2963 452 L
2971 452 L
2978 452 L
2985 452 L
2992 452 L
2999 452 L
3007 452 L
3014 452 L
3021 452 L
3028 452 L
stroke
grestore
end
showpage
%%Trailer
%%Pages: 1
