%!PS-Adobe-2.0 EPSF-2.0
%%Creator: gnuplot
%%DocumentFonts: Helvetica
%%BoundingBox: 50 50 410 302
%%EndComments
/gnudict 40 dict def
gnudict begin
/Color false def
/Solid false def
/gnulinewidth 5.000 def
/vshift -60 def
/dl {10 mul} def
/hpt 31.5 def
/vpt 31.5 def
/M {moveto} bind def
/L {lineto} bind def
/R {rmoveto} bind def
/V {rlineto} bind def
/vpt2 vpt 2 mul def
/hpt2 hpt 2 mul def
/Lshow { currentpoint stroke M
  0 vshift R show } def
/Rshow { currentpoint stroke M
  dup stringwidth pop neg vshift R show } def
/Cshow { currentpoint stroke M
  dup stringwidth pop -2 div vshift R show } def
/DL { Color {setrgbcolor Solid {pop []} if 0 setdash }
 {pop pop pop Solid {pop []} if 0 setdash} ifelse } def
/BL { stroke gnulinewidth 2 mul setlinewidth } def
/AL { stroke gnulinewidth 2 div setlinewidth } def
/PL { stroke gnulinewidth setlinewidth } def
/LTb { BL [] 0 0 0 DL } def
/LTa { AL [1 dl 2 dl] 0 setdash 0 0 0 setrgbcolor } def
/LT0 { PL [] 0 1 0 DL } def
/LT1 { PL [4 dl 2 dl] 0 0 1 DL } def
/LT2 { PL [2 dl 3 dl] 1 0 0 DL } def
/LT3 { PL [1 dl 1.5 dl] 1 0 1 DL } def
/LT4 { PL [5 dl 2 dl 1 dl 2 dl] 0 1 1 DL } def
/LT5 { PL [4 dl 3 dl 1 dl 3 dl] 1 1 0 DL } def
/LT6 { PL [2 dl 2 dl 2 dl 4 dl] 0 0 0 DL } def
/LT7 { PL [2 dl 2 dl 2 dl 2 dl 2 dl 4 dl] 1 0.3 0 DL } def
/LT8 { PL [2 dl 2 dl 2 dl 2 dl 2 dl 2 dl 2 dl 4 dl] 0.5 0.5 0.5 DL } def
/P { stroke [] 0 setdash
  currentlinewidth 2 div sub M
  0 currentlinewidth V stroke } def
/D { stroke [] 0 setdash 2 copy vpt add M
  hpt neg vpt neg V hpt vpt neg V
  hpt vpt V hpt neg vpt V closepath stroke
  P } def
/A { stroke [] 0 setdash vpt sub M 0 vpt2 V
  currentpoint stroke M
  hpt neg vpt neg R hpt2 0 V stroke
  } def
/B { stroke [] 0 setdash 2 copy exch hpt sub exch vpt add M
  0 vpt2 neg V hpt2 0 V 0 vpt2 V
  hpt2 neg 0 V closepath stroke
  P } def
/C { stroke [] 0 setdash exch hpt sub exch vpt add M
  hpt2 vpt2 neg V currentpoint stroke M
  hpt2 neg 0 R hpt2 vpt2 V stroke } def
/T { stroke [] 0 setdash 2 copy vpt 1.12 mul add M
  hpt neg vpt -1.62 mul V
  hpt 2 mul 0 V
  hpt neg vpt 1.62 mul V closepath stroke
  P  } def
/S { 2 copy A C} def
end
%%EndProlog
gnudict begin
gsave
50 50 translate
0.050 0.050 scale
0 setgray
/Helvetica findfont 180 scalefont setfont
newpath
LTa
LTb
1080 271 M
63 0 V
5778 0 R
-63 0 V
972 271 M
(0) Rshow
1080 1207 M
63 0 V
5778 0 R
-63 0 V
-5886 0 R
(0.1) Rshow
1080 2142 M
63 0 V
5778 0 R
-63 0 V
-5886 0 R
(0.2) Rshow
1080 3078 M
63 0 V
5778 0 R
-63 0 V
-5886 0 R
(0.3) Rshow
1080 4013 M
63 0 V
5778 0 R
-63 0 V
-5886 0 R
(0.4) Rshow
1080 4949 M
63 0 V
5778 0 R
-63 0 V
-5886 0 R
(0.5) Rshow
1080 271 M
0 63 V
0 4615 R
0 -63 V
1080 91 M
(-2) Cshow
2054 271 M
0 63 V
0 4615 R
0 -63 V
2054 91 M
(0) Cshow
3027 271 M
0 63 V
0 4615 R
0 -63 V
3027 91 M
(2) Cshow
4001 271 M
0 63 V
0 4615 R
0 -63 V
4001 91 M
(4) Cshow
4974 271 M
0 63 V
0 4615 R
0 -63 V
4974 91 M
(6) Cshow
5948 271 M
0 63 V
0 4615 R
0 -63 V
5948 91 M
(8) Cshow
6921 271 M
0 63 V
0 4615 R
0 -63 V
6921 91 M
(10) Cshow
1080 271 M
5841 0 V
0 4678 V
-5841 0 V
0 -4678 V
180 2610 M
currentpoint gsave translate 90 rotate 0 0 M
(Relative Frequency) Cshow
grestore
LT0
2540 271 M
487 0 R
0 936 V
3514 271 M
0 936 V
4001 271 M
0 1871 V
4487 271 M
0 3742 V
4974 271 M
0 1871 V
5461 271 M
0 936 V
stroke
grestore
end
showpage
%%Trailer
