%!PS-Adobe-3.0 EPSF-3.0
%%Title: FlipFlop.eps
%%Creator: Xcircuit v3.3
%%CreationDate: Sun Jun 26 16:48:51 2005
%%Pages: 1
%%BoundingBox: 68 68 392 228
%%DocumentNeededResources: font Helvetica font Times-Roman font Symbol 
%%EndComments
%%BeginProlog
%
%  PostScript prolog for output from xcircuit
%  Version: 3.1
%
%  Electrical circuit (and otherwise general) drawing program
%
%  Written by Tim Edwards 8/5/93--1/5/04  (tim@bach.ece.jhu.edu)
%  The Johns Hopkins University
%
%%BeginResource: procset XCIRCproc 3.1 0
%
% supporting definitions --- these are the primary xcircuit types.

/XCIRCsave save def
/topmat matrix currentmatrix def

/fontslant { /slant exch def [1 0 slant 1 0 0] 
    exch findfont exch makefont dup length dict /ndict exch def
    { 1 index /FID ne { ndict 3 1 roll put } { pop pop } ifelse } forall
    ndict definefont pop} def
/ul { dup type /stringtype eq showflag 1 eq and { gsave 
   currentpoint topmat setmatrix 0 0 moveto 2 index stringwidth pop (_)
   false charpath flattenpath pathbbox grestore exch pop 1 index
   sub setlinewidth exch pop currentpoint 3 -1 roll add moveto 0
   rlineto stroke moveto } if } def
/ol { dup type /stringtype eq showflag 1 eq and { gsave gsave
   currentpoint topmat setmatrix 2 index stringwidth pop 3 index
   true charpath flattenpath pathbbox grestore exch pop
   exch pop topmat setmatrix (_) true charpath pathbbox grestore
   exch pop 1 index sub setlinewidth exch pop currentpoint
   exch 4 1 roll exch sub add moveto pop 0 rlineto stroke
   moveto } if } def
/stW { gsave currentpoint newpath moveto true charpath flattenpath
	pathbbox pop exch pop sub grestore } def
/Ts {mark Tabs aload pop counttomark 1 add array astore /Tabs exch def Tabs
	0 currentpoint pop put} def
/Tbn {mark Tabs aload pop counttomark dup 2 add 1 roll cleartomark 1 sub} def
/Tb { 0 1 Tbn {Tabs exch get dup currentpoint pop lt
	{currentpoint exch pop moveto exit} {pop} ifelse } for } def
/Tf { Tbn -1 0 {Tabs exch get dup currentpoint pop gt
	{currentpoint exch pop moveto exit} {pop} ifelse } for } def
/qS { (aa) stW (a a) stW sub 4 div 0 Kn } def
/hS { qS qS } def
/pspc 0 def
/cf0 { scalefont setfont } bind def
/Kn { dup kY add /kY exch def rmoveto } bind def
/ss { /fscale fscale 0.67 mul def currentfont 0.67 cf0 0 fscale0 fscale mul
	0.33 mul neg Kn} def
/Ss { /fscale fscale 0.67 mul def currentfont 0.67 cf0 0 fscale0 fscale mul
	0.67 mul Kn } def
/ns { 0 kY neg Kn /kY 0 def /fscale 1.0 def xfont0 1.0 cf0 } def
/CR { ns 0 /Bline Bline fscale0 neg add def Bline moveto } def
/cf { dup type /realtype ne {1.0} if exch findfont exch kY 0 eq
	{ 40 mul dup /fscale0 exch def cf0 /xfont0 currentfont def}
	{fscale0 mul fscale mul cf0} ifelse } def
/ctmk { counttomark dup 2 add -1 roll pop } bind def
/label { gsave translate 0 0 moveto dup scale neg /rotval exch def
	/just exch def just 384 and 0 gt {/mshow {pop} def} {/mshow {show}
	def} ifelse just 16 and 0 gt {gsave rotval rotate 0 1 dtransform
	gsave pagemat setmatrix idtransform exch grestore 1 0 dtransform
	gsave pagemat setmatrix idtransform exch grestore dup abs 1e-9 lt
	{pop mul 0 gt} {3 1 roll pop pop 0 lt} ifelse grestore {-1 /rotval
	rotval neg def /just just dup 3 and 1 ne {3 xor} if def} {1} ifelse
	exch -1e-9 lt {-1 /rotval rotval neg def /just just dup 12 and
	4 ne {12 xor} if def} {1} ifelse scale } if /showflag 0 def
	/fspc pspc def /Bline 0 def /Tabs 0 array def /fscale 1.0 def
	/kY 0 def gsave dup 1 add copy 0 exch 1 0 dtransform exch atan rotate
	{exch dup type /stringtype eq {true charpath flattenpath} {dup type
	/arraytype eq {exec} {12 string cvs true charpath flattenpath} ifelse}
	ifelse} repeat pop pathbbox grestore 3 -1 roll pop 3 1 roll just
	1 and 0 gt {just 2 and 0 gt {exch pop neg fspc sub} {exch sub 0.5
	mul neg} ifelse} {pop neg fspc add} ifelse exch Bline exch just 4
	and 0 gt {just 8 and 0 gt {exch pop neg fspc sub} {add 0.5 mul neg}
	ifelse} {pop neg fspc add} ifelse rotval rotate Kn currentpoint
	translate /showflag 1 def /Bline 0 def /Tabs 0 array def /fscale
	1.0 def /kY 0 def {dup type /stringtype eq {mshow} {dup type
	/arraytype eq {exec} {12 string cvs mshow} ifelse} ifelse} repeat
	grestore } def
/pinlabel { 4 index 32 and 0 ne hlevel 0 eq or { /pspc 10 def label
	/pspc 0 def } { pop pop pop pop pop {pop} repeat } ifelse } def
/pinglobal { pinlabel } def
/infolabel { pinlabel } def

/scb { setrgbcolor } bind def  /sce { defColor aload pop scb } bind def
/cRedef {/defColor currentcolor 3 array astore def} def
/begingate {dup type /dicttype ne {1 dict} if begin	% default params
	dup type /dicttype ne {1 dict} if begin		% instanced params
	/hlevel hlevel 1 add def /defColor currentcolor sce 3 array
	astore def gsave sce translate 0 0 moveto neg rotate dup abs scale
	} bind def
/endgate { /hlevel hlevel 1 sub def grestore defColor aload pop cRedef
	scb end end} bind def

/hlevel 0 def
/tmpa [1 0 0 1 0 0] def
/gar {8 8 true tmpa {<c0 c0 00 00 0c 0c 00 00>} imagemask} bind
{8 8 true tmpa {<30 70 60 02 03 07 06 20>} imagemask} bind
{8 8 true tmpa {<0c 1e 1e 0c c0 e1 e1 c0>} imagemask} bind
{8 8 true tmpa {<0f 0f 0f 0f f0 f0 f0 f0>} imagemask} bind
{8 8 true tmpa {<3f f3 e1 e1 f3 3f 1e 1e>} imagemask} bind
{8 8 true tmpa {<df cf 8f 9f fd fc f8 f9>} imagemask} bind
{8 8 true tmpa {<ff 3f 3f ff ff f3 f3 ff>} imagemask} bind 7 array astore def
/ppaint { gsave clip tmpa dup setmatrix pathbbox neg exch neg 4 2 roll
  neg 4 -1 roll 2 copy gt {exch} if 8 div ceiling 8 mul 4 2 roll neg 2 copy
  gt {exch} if 8 div ceiling 8 mul 3 -1 roll -8 5 -1 roll
  { 3 index exch 5 exch put dup -8 3 index { 3 index
  exch 4 exch put 3 index exec } for } for pop pop pop pop grestore } bind def
/setstyles {
  currentlinewidth mul setlinewidth /style exch def
  style 1 and 0 gt not {closepath} if
  style 2 and 0 gt {currentlinewidth 4 mul dup 2 array astore 0 setdash} if
  style 4 and 0 gt {0.5 currentlinewidth 4 mul 2 array astore 0 setdash} if
  gsave style 16 and 0 gt { style 224 and -5 bitshift style 256 and 0 gt {
  7 exch sub 8 div dup 1 exch sub currentrgbcolor 3 array astore
  {3 copy mul add 4 1 roll pop} forall pop pop setrgbcolor eofill}
  {dup 7 lt {gar exch get ppaint} {pop eofill} ifelse} ifelse}
  {style 256 and 0 gt {1 setgray eofill} if} ifelse grestore style 8 and 0 gt 
  style 512 eq or {newpath} {stroke} ifelse grestore} def     

/polygon { gsave /num exch def moveto num 1 sub {lineto} repeat setstyles } def
/xcarc   { gsave newpath arc setstyles } def
/elb { matrix currentmatrix 7 -1 roll 7 -1 roll translate 5 1 roll 4 -1 roll
	3 index div 1 scale } def
/ele { 0 4 1 roll 0 4 1 roll } bind def
/ellipse { gsave elb newpath ele arc setmatrix setstyles } def
/pellip  { elb ele arc setmatrix } def
/nellip  { elb ele arcn setmatrix } def
/spline  { gsave moveto curveto setstyles } def
/polyc   { {lineto} repeat } bind def
/beginpath { gsave moveto } bind def
/endpath { setstyles } bind def
/bop	 { 1 setlinecap 0 setlinejoin 6 setmiterlimit 0 0 0 scb cRedef } def
/psinsertion {/PSobj save def /showpage {} def /setpagedevice {pop} def bop
	rotate translate dup scale} def
/end_insert {PSobj restore} def
/setpagemat {/pagemat matrix currentmatrix def} def
/inchscale  {setpagemat 0.375 mul dup scale} def
/cmscale    {setpagemat 0.35433071 mul dup scale} def

%%EndResource
%%EndProlog

% XCircuit output starts here.

%%BeginSetup

/arrowhead {
% trivial
begingate
8 -28 beginpath
3 -18 3 -15 0 0 curveto
-3 -15 -3 -18 -8 -28 curveto
-2 -26 2 -26 8 -28 curveto
249 1.00 endpath
endgate
} def

/npn {
begingate
1 1.00 -48 0 -64 0 2 polygon
1 1.00 -48 48 -48 -48 2 polygon
1 1.00 0 48 -48 22 2 polygon
1 1.00 0 48 0 64 2 polygon
1 1.00 0 -48 -48 -22 2 polygon
1 1.00 0 -48 0 -64 2 polygon
1.00 120 0 -48 arrowhead
1.000 0.000 0.000 scb
(C) {/Times-Roman cf} 2 9 0 1.00 0 64 pinlabel
(B) {/Times-Roman cf} 2 7 0 1.00 -64 0 pinlabel
(E) {/Times-Roman cf} 2 13 0 1.00 0 -64 pinlabel
0.180 0.545 0.341 scb
(spice:Q%i %pC %pB %pE npn) {/Times-Roman cf} 2 4 0 1.00 -244 -139 infolabel
(sim:b %pB %pE %pC) {/Times-Roman cf} 2 4 0 1.00 -244 -187 infolabel
endgate
} def

/resistor {
begingate
1 1.00 0 64 0 36 2 polygon
1 1.00 0 -64 0 -36 2 polygon
1 1.00 0 -36 14 -30 -14 -18 14 -6 -14 6 14 18 -14 30 0 36 8 polygon
1.000 0.000 0.000 scb
(r.1) {/Times-Roman cf} 2 9 0 1.00 0 64 pinlabel
(r.2) {/Times-Roman cf} 2 13 0 1.00 0 -64 pinlabel
0.180 0.545 0.341 scb
(spice:R%i %pr.1 %pr.2 1.0K) {/Times-Roman cf} 2 0 0 1.00 -208 -160 infolabel
(sim:r %pr.1 %pr.2) {/Times-Roman cf} 2 0 0 1.00 -208 -208 infolabel
endgate
} def

/capacitor {
begingate
1 1.00 0 -64 0 -6 2 polygon
1 1.00 0 64 0 6 2 polygon
1 1.00 -32 6 32 6 2 polygon
1 1.00 -32 -6 32 -6 2 polygon
1.000 0.000 0.000 scb
(c.1) {/Times-Roman cf} 2 9 0 1.00 0 64 pinlabel
(c.2) {/Times-Roman cf} 2 13 0 1.00 0 -64 pinlabel
0.180 0.545 0.341 scb
(spice:C%i %pc.1 %pc.2 1.0P) {/Times-Roman cf} 2 0 0 1.00 -208 -160 infolabel
(sim:c %pc.1 %pc.2) {/Times-Roman cf} 2 0 0 1.00 -208 -208 infolabel
endgate
} def

/gnd {
% trivial
begingate
1 1.00 0 0 0 -32 2 polygon
1 1.00 -32 -32 32 -32 2 polygon
1 1.00 -18 -46 18 -46 2 polygon
1 1.00 -4 -60 4 -60 2 polygon
0.933 0.604 0.000 scb
(GND) {/Times-Roman cf} 2 1 0 1.00 0 0 pinglobal
endgate
} def

/circle {
% trivial
begingate
1 1.00 16 0 6 0.00 360.00 xcarc
1 1.00 0 0 10 0 2 polygon
1.000 0.000 0.000 scb
(out) {/Times-Roman cf} 2 4 0 1.00 16 0 pinlabel
(out) {/Times-Roman cf} 2 7 0 1.00 0 0 pinlabel
endgate
} def

/dot {
% trivial
begingate
248 1.00 0 0 6 0.00 360.00 xcarc
1.000 0.000 0.000 scb
(x) {/Times-Roman cf} 2 29 0 1.00 0 0 pinlabel
endgate
} def


%%EndSetup

%%Page: Page1.eps 1
%%PageOrientation: Portrait
/pgsave save def bop
1.0000 inchscale
2.6000 setlinewidth 1664 108 translate

1.00 0 -976 240 npn
-1.00 0 -1328 240 npn
1 1.00 -1328 304 -1328 336 2 polygon
1.00 180 -1328 400 resistor
1.00 180 -1200 400 resistor
1.00 180 -1104 400 resistor
1.00 180 -976 400 resistor
1.00 90 -1264 336 capacitor
1.00 90 -1040 336 capacitor
1 1.00 -1104 336 -1200 240 2 polygon
1 1.00 -1200 336 -1104 240 2 polygon
1 1.00 -1264 240 -1200 240 2 polygon
1 1.00 -1104 240 -1040 240 2 polygon
1 1.00 -1328 176 -1328 144 -976 144 -976 176 4 polygon
1 1.00 -976 336 -976 304 2 polygon
1 1.00 -1328 464 -896 464 2 polygon
1 1.00 -976 336 -896 336 2 polygon
1.00 0 -1152 144 gnd
1.00 0 -896 464 circle
1.00 0 -896 336 circle
1.00 0 -1328 336 dot
1.00 0 -1200 336 dot
1.00 0 -1104 336 dot
1.00 0 -976 336 dot
1.00 0 -976 464 dot
1.00 0 -1104 464 dot
1.00 0 -1200 464 dot
1.00 0 -1328 464 dot
(= 1.5 Volts) {ns} (in) {ss} (V) {/Helvetica cf} 6 16 0 1.00 -864 464 label
(out) {ss} (V) {/Helvetica cf} 4 16 0 1.00 -864 336 label
(+) {/Helvetica 0.700 cf} {/Helvetica cf} 3 16 0 1.00 -1296 352 label
(4.7 K) {/Helvetica cf} 2 16 0 0.70 -1072 384 label
(+) {/Helvetica 0.700 cf} {/Helvetica cf} 3 16 0 1.00 -1024 352 label
(4.7 K) {/Helvetica cf} 2 16 0 0.70 -1280 384 label
(11) {ss} (R) {/Helvetica cf} 4 16 0 1.00 -1408 416 label
(12) {ss} (R) {/Helvetica cf} 4 16 0 1.00 -1072 416 label
(21) {ss} (R) {/Helvetica cf} 4 16 0 1.00 -944 416 label
(22) {ss} (R) {/Helvetica cf} 4 16 0 1.00 -1296 416 label
(1) {ss} (C) {/Helvetica cf} 4 16 0 1.00 -944 304 label
(2) {ss} (C) {/Helvetica cf} 4 16 0 1.00 -1472 320 label
(W) {/Symbol cf} (1000 ) {/Helvetica cf} 4 16 0 0.70 -1440 384 label
(W) {/Symbol cf} (1000 ) {/Helvetica cf} 4 16 0 0.70 -944 384 label
(F) {/Times-Roman cf} (m) {/Symbol cf} (100 ) {/Helvetica cf} 6 16 0 1.00 -944 
256 label
(F) {/Times-Roman cf} (m) {/Symbol cf} (100 ) {/Helvetica cf} 6 16 0 1.00 -1472 
272 label
pgsave restore showpage

%%Trailer
XCIRCsave restore
%%EOF
